*
%FSLAX35Y35*%
%MOMM*%
%ADD10C,0.199898*%
%ADD11C,0.329945*%
%ADD12C,1.000000*%
%ADD13C,2.000000*%
%IPPOS*%
%LNdrl.gbr.sub1*%
%LPD*%
%SRX2Y7I33.00000J14.10000*%
G01*
G75*
G54D10*
X00570129Y00085014D03*
X00820140Y00272516D03*
X00865124Y00480009D03*
X01085114Y00394995D03*
X01047623Y00352501D03*
X01113917Y00342494D03*
X01187628Y00327508D03*
X01255116Y00329997D03*
X01337615Y00335001D03*
X01280135Y00105004D03*
X01217651Y00102515D03*
X01157631Y00107493D03*
X01660118Y00105004D03*
X01641424Y00401295D03*
X01732636Y00394995D03*
X01739926Y00621310D03*
Y00701904D03*
Y00754609D03*
X01737436Y00807313D03*
X01732636Y00859993D03*
X01662684Y01030046D03*
X01615186Y01062558D03*
X01510182Y01137564D03*
X01438681Y01071499D03*
X01382624Y01075004D03*
X01320165Y01087552D03*
X01187653Y01072540D03*
X01132662Y01077544D03*
X01062635Y00972490D03*
X01011784Y00893191D03*
X00887628Y00870001D03*
Y00956666D03*
Y01043331D03*
X00952627Y01050011D03*
X00887628Y01129995D03*
X01990116Y00985012D03*
X01940128Y00752500D03*
X01957705Y00600024D03*
X01837639Y00584988D03*
X02278863Y00406248D03*
X02612619Y00362509D03*
X02577618Y00127508D03*
X02940126Y00092507D03*
X02997632Y00127508D03*
X03092628Y00277495D03*
X03177616D03*
X03135122Y00319989D03*
X03177616Y00362509D03*
X03092628D03*
X03135122Y00542493D03*
X03281375Y00563753D03*
X03262630Y00484988D03*
X03352774Y00445033D03*
X03462630Y00462508D03*
X03472637Y00545008D03*
X03465119Y00712495D03*
X03470123Y00805002D03*
X03407765Y00777545D03*
X03330118Y00797509D03*
X03267634Y00780009D03*
Y00880008D03*
X03242615Y00947496D03*
X03035656Y00943026D03*
X03040126Y00875005D03*
X03107614Y00827507D03*
X03043149Y01028014D03*
X03062097Y01080719D03*
X02972613Y01152500D03*
X02667737Y01132561D03*
X02596718Y01046480D03*
X02592629Y00902488D03*
X02590140Y00847497D03*
X02627630Y00710006D03*
X02800249Y00745033D03*
X02727630Y00529996D03*
X02955112Y00605003D03*
X02900248Y00310007D03*
X03325267Y00205003D03*
X03330118Y00087503D03*
X03467634D03*
X03715131Y00257505D03*
Y00350012D03*
X03707612Y00605003D03*
X03707638Y00787502D03*
X03647618Y00805002D03*
X03480130Y00929995D03*
X03455136Y01115009D03*
X03402635Y01077494D03*
X02307616Y01019988D03*
X02282724Y00807542D03*
X02385136Y00729996D03*
G54D11*
X01186561Y00523799D03*
Y00643788D03*
Y00763804D03*
Y00883793D03*
X01306551D03*
X01426566D03*
X01546555D03*
Y00763804D03*
X01426566D03*
X01306551D03*
Y00643788D03*
Y00523799D03*
X01426566D03*
Y00643788D03*
X01546555D03*
Y00523799D03*
G54D12*
X02790139Y00610007D03*
%LNdrl.gbr*%
%LPD*%
%SRX1Y1I0J0*%
G01*
G75*
G54D13*
X00250127Y00499999D03*
Y09170035D03*
X07350062Y01599999D03*
Y09170035D03*
M02*
