*
%FSLAX35Y35*%
%MOMM*%
%IPPOS*%
%LNg2.gbr.sub1*%
%LPD*%
%SRX2Y7I33.00000J14.10000*%
G01*
G75*
G36*
X00830123Y00020727D02*
Y00107493D01*
X01124280D01*
X01126820Y00094742D01*
X01134059Y00083922D01*
X01144854Y00076708D01*
X01157631Y00074168D01*
X01170381Y00076708D01*
X01181201Y00083922D01*
X01193622Y00079629D01*
G03X01241247Y00078943I00024147J00022859D01*
G01X01242086Y00080213D01*
X01256563Y00081433D01*
X01267359Y00074194D01*
X01280135Y00071654D01*
X01292885Y00074194D01*
X01303706Y00081433D01*
X01310919Y00092253D01*
X01313460Y00105004D01*
X01626794D01*
X01629334Y00092253D01*
X01636548Y00081433D01*
X01647368Y00074194D01*
X01660118Y00071654D01*
X01672895Y00074194D01*
X01683690Y00081433D01*
X01690929Y00092253D01*
X01693469Y00105004D01*
X01712620D01*
Y00020727D01*
X00830123D01*
G37*
G36*
Y00107493D02*
Y00241147D01*
G03X00843712Y00296088I-00009918J00031604D01*
G01X00832891Y00303327D01*
X00830123Y00303860D01*
Y00394995D01*
X01051789D01*
G03X01073658Y00363957I00033241J00000197D01*
G01X01083107Y00355270D01*
X01080592Y00342494D01*
X01083107Y00329743D01*
X01090346Y00318922D01*
X01101166Y00311709D01*
X01113917Y00309169D01*
X01126668Y00311709D01*
X01137488Y00318922D01*
X01141933Y00325577D01*
X01155243Y00322631D01*
X01156818Y00314732D01*
X01164057Y00303911D01*
X01174877Y00296697D01*
X01187628Y00294158D01*
X01200378Y00296697D01*
X01211199Y00303911D01*
X01214577Y00308965D01*
X01229386Y00309677D01*
G03X01278712Y00306426I00026108J00020289D01*
G01X01285926Y00317246D01*
X01288466Y00329997D01*
X01305287D01*
X01306830Y00322250D01*
X01314044Y00311430D01*
X01324864Y00304191D01*
X01337615Y00301651D01*
X01350391Y00304191D01*
X01361212Y00311430D01*
X01368425Y00322250D01*
X01370965Y00335001D01*
X01712620D01*
Y00105004D01*
X01693469D01*
X01690929Y00117754D01*
X01683690Y00128575D01*
G03X01660118Y00138329I-00023532J-00023510D01*
G01X01647368Y00135814D01*
X01636548Y00128575D01*
X01629334Y00117754D01*
X01626794Y00105004D01*
X01313460D01*
X01310919Y00117754D01*
X01303706Y00128575D01*
X01292885Y00135814D01*
X01280135Y00138329D01*
X01267359Y00135814D01*
X01256563Y00128575D01*
X01255700Y00127305D01*
X01241247Y00126085D01*
X01230427Y00133299D01*
X01217651Y00135839D01*
X01204900Y00133299D01*
X01194080Y00126085D01*
X01181684Y00130378D01*
X01181201Y00131064D01*
X01170381Y00138303D01*
X01157631Y00140843D01*
X01144854Y00138303D01*
X01134059Y00131064D01*
X01126820Y00120269D01*
X01124280Y00107493D01*
X00830123D01*
G37*
G36*
Y00394995D02*
Y00450672D01*
X00836955Y00454101D01*
X00842823Y00455575D01*
X00852373Y00449199D01*
X00865124Y00446659D01*
X00877875Y00449199D01*
X00888695Y00456413D01*
X00895934Y00467233D01*
X00898474Y00480009D01*
X00895934Y00492760D01*
X00888695Y00503581D01*
X00877875Y00510794D01*
X00865124Y00513334D01*
G03X00842823Y00504418I-00000024J-00032290D01*
G01X00836955Y00505892D01*
X00830123Y00509346D01*
Y00523799D01*
X01139952D01*
X01143508Y00505968D01*
X01153617Y00490855D01*
X01168730Y00480746D01*
X01186561Y00477215D01*
X01204392Y00480746D01*
X01219505Y00490855D01*
X01229614Y00505968D01*
X01233145Y00523799D01*
X01259967D01*
X01263523Y00505968D01*
X01273607Y00490855D01*
X01288720Y00480746D01*
X01306551Y00477215D01*
X01324382Y00480746D01*
X01339494Y00490855D01*
X01349604Y00505968D01*
X01353160Y00523799D01*
X01379957D01*
X01383513Y00505968D01*
X01393622Y00490855D01*
X01408735Y00480746D01*
X01426566Y00477215D01*
X01444396Y00480746D01*
X01459509Y00490855D01*
X01469619Y00505968D01*
X01473149Y00523799D01*
X01499972D01*
X01503502Y00505968D01*
X01513611Y00490855D01*
X01528724Y00480746D01*
X01546555Y00477215D01*
X01564386Y00480746D01*
X01579499Y00490855D01*
X01589608Y00505968D01*
X01593164Y00523799D01*
X01841855D01*
Y00507492D01*
X01844091Y00490474D01*
X01848358Y00480187D01*
X01841195Y00467513D01*
X01712646D01*
X01712620Y00467487D01*
Y00420954D01*
G03X01712620Y00369036I00019968J-00025959D01*
G01Y00335001D01*
X01370965D01*
X01368425Y00347751D01*
X01361212Y00358572D01*
X01350391Y00365811D01*
X01337615Y00368351D01*
X01324864Y00365811D01*
X01314044Y00358572D01*
X01306830Y00347751D01*
X01304290Y00335001D01*
X01287471D01*
X01285926Y00342773D01*
X01278712Y00353568D01*
X01267892Y00360807D01*
X01255116Y00363347D01*
X01242365Y00360807D01*
G03X01228192Y00348539I00010656J-00026632D01*
G01X01213358Y00347827D01*
G03X01164057Y00351079I-00026100J-00020353D01*
G01X01159612Y00344424D01*
X01146302Y00347371D01*
X01144727Y00355270D01*
X01137488Y00366065D01*
X01126668Y00373304D01*
X01125398Y00373558D01*
X01115924Y00382244D01*
X01118464Y00394995D01*
X01115924Y00407746D01*
X01108710Y00418567D01*
X01097890Y00425805D01*
X01085114Y00428346D01*
X01072363Y00425805D01*
X01061542Y00418567D01*
X01054329Y00407746D01*
X01051789Y00394995D01*
X00830123D01*
G37*
G36*
Y00523799D02*
Y00643788D01*
X01139952D01*
X01143508Y00625958D01*
X01153617Y00610845D01*
X01168730Y00600761D01*
X01186561Y00597205D01*
X01204392Y00600761D01*
X01219505Y00610845D01*
X01229614Y00625958D01*
X01233145Y00643788D01*
X01259967D01*
X01263523Y00625958D01*
X01273607Y00610845D01*
X01288720Y00600761D01*
X01306551Y00597205D01*
X01324382Y00600761D01*
X01339494Y00610845D01*
X01349604Y00625958D01*
X01353160Y00643788D01*
X01379957D01*
X01383513Y00625958D01*
X01393622Y00610845D01*
X01408735Y00600761D01*
X01426566Y00597205D01*
X01444396Y00600761D01*
X01459509Y00610845D01*
X01469619Y00625958D01*
X01473149Y00643788D01*
X01499972D01*
X01503502Y00625958D01*
X01513611Y00610845D01*
X01528724Y00600761D01*
X01546555Y00597205D01*
X01564386Y00600761D01*
X01579499Y00610845D01*
X01586499Y00621310D01*
X01706575D01*
X01709115Y00608533D01*
X01716354Y00597713D01*
X01727175Y00590499D01*
X01739926Y00587959D01*
X01752676Y00590499D01*
X01763497Y00597713D01*
X01770736Y00608533D01*
X01773275Y00621310D01*
X01932050D01*
G03X01924355Y00600024I00025687J-00021320D01*
G01X01912899Y00592582D01*
G03X01841855Y00527507I-00005526J-00065284D01*
G01Y00523799D01*
X01593164D01*
X01589608Y00541630D01*
X01579499Y00556743D01*
X01564386Y00566852D01*
X01546555Y00570382D01*
X01528724Y00566852D01*
X01513611Y00556743D01*
X01503502Y00541630D01*
X01499972Y00523799D01*
X01473149D01*
X01469619Y00541630D01*
X01459509Y00556743D01*
X01444396Y00566852D01*
X01426566Y00570382D01*
X01408735Y00566852D01*
X01393622Y00556743D01*
X01383513Y00541630D01*
X01379957Y00523799D01*
X01353160D01*
X01349604Y00541630D01*
X01339494Y00556743D01*
X01324382Y00566852D01*
X01306551Y00570382D01*
X01288720Y00566852D01*
X01273607Y00556743D01*
X01263523Y00541630D01*
X01259967Y00523799D01*
X01233145D01*
X01229614Y00541630D01*
X01219505Y00556743D01*
X01204392Y00566852D01*
X01186561Y00570382D01*
X01168730Y00566852D01*
X01153617Y00556743D01*
X01143508Y00541630D01*
X01139952Y00523799D01*
X00830123D01*
G37*
G36*
Y00643788D02*
Y00763804D01*
X01139952D01*
X01143508Y00745973D01*
X01153617Y00730860D01*
X01168730Y00720751D01*
X01186561Y00717195D01*
X01204392Y00720751D01*
X01219505Y00730860D01*
X01229614Y00745973D01*
X01233145Y00763804D01*
X01259967D01*
X01263523Y00745973D01*
X01273607Y00730860D01*
X01288720Y00720751D01*
X01306551Y00717195D01*
X01324382Y00720751D01*
X01339494Y00730860D01*
X01349604Y00745973D01*
X01353160Y00763804D01*
X01379957D01*
X01383513Y00745973D01*
X01393622Y00730860D01*
X01408735Y00720751D01*
X01426566Y00717195D01*
X01444396Y00720751D01*
X01459509Y00730860D01*
X01469619Y00745973D01*
X01473149Y00763804D01*
X01499972D01*
X01503502Y00745973D01*
X01513611Y00730860D01*
X01528724Y00720751D01*
X01546555Y00717195D01*
X01564386Y00720751D01*
X01579499Y00730860D01*
X01589608Y00745973D01*
X01593164Y00763804D01*
X01708407D01*
X01706575Y00754609D01*
X01709115Y00741832D01*
X01716354Y00731012D01*
Y00725475D01*
X01709115Y00714655D01*
X01706575Y00701904D01*
X01709115Y00689153D01*
X01716354Y00678332D01*
X01727175Y00671094D01*
X01739926Y00668554D01*
X01752676Y00671094D01*
X01763497Y00678332D01*
X01770736Y00689153D01*
X01773275Y00701904D01*
X01770736Y00714655D01*
X01763497Y00725475D01*
Y00731012D01*
X01770736Y00741832D01*
X01772857Y00752500D01*
X01906778D01*
X01909318Y00739749D01*
X01916557Y00728929D01*
X01927378Y00721690D01*
X01940128Y00719150D01*
X01952879Y00721690D01*
X01963700Y00728929D01*
X01964413Y00729996D01*
X02351786D01*
X02354326Y00717245D01*
X02361540Y00706425D01*
X02372360Y00699186D01*
X02385136Y00696671D01*
G03X02408708Y00706425I00000000J00033359D01*
G01X02411095Y00710006D01*
X02594280D01*
X02596820Y00697230D01*
X02604059Y00686435D01*
X02614879Y00679196D01*
X02627630Y00676656D01*
X02640381Y00679196D01*
X02651201Y00686435D01*
G03X02660955Y00709966I-00023509J00023531D01*
G01X03042615D01*
Y00605003D01*
X02988463D01*
X02985923Y00617754D01*
X02978709Y00628574D01*
X02967889Y00635813D01*
X02955112Y00638327D01*
X02942362Y00635813D01*
X02931541Y00628574D01*
X02924328Y00617754D01*
X02922784Y00610007D01*
X02854046D01*
X02849194Y00634467D01*
X02835326Y00655193D01*
X02814599Y00669061D01*
X02790139Y00673938D01*
X02765654Y00669061D01*
X02744927Y00655193D01*
X02731059Y00634467D01*
X02726208Y00610007D01*
X01989045D01*
X01988490Y00612801D01*
X01981276Y00623596D01*
X01970456Y00630835D01*
X01957705Y00633375D01*
X01944929Y00630835D01*
X01934134Y00623596D01*
G03X01932050Y00621310I00023603J-00023606D01*
G01X01773275D01*
X01770736Y00634060D01*
X01763497Y00644880D01*
X01752676Y00652094D01*
X01739926Y00654634D01*
X01727175Y00652094D01*
X01716354Y00644880D01*
X01715624Y00643788D01*
X01593164D01*
X01589608Y00661619D01*
X01579499Y00676732D01*
X01564386Y00686842D01*
X01546555Y00690398D01*
X01528724Y00686842D01*
X01513611Y00676732D01*
X01503502Y00661619D01*
X01499972Y00643788D01*
X01473149D01*
X01469619Y00661619D01*
X01459509Y00676732D01*
X01444396Y00686842D01*
X01426566Y00690398D01*
X01408735Y00686842D01*
X01393622Y00676732D01*
X01383513Y00661619D01*
X01379957Y00643788D01*
X01353160D01*
X01349604Y00661619D01*
X01339494Y00676732D01*
X01324382Y00686842D01*
X01306551Y00690398D01*
X01288720Y00686842D01*
X01273607Y00676732D01*
X01263523Y00661619D01*
X01259967Y00643788D01*
X01233145D01*
X01229614Y00661619D01*
X01219505Y00676732D01*
X01204392Y00686842D01*
X01186561Y00690398D01*
X01168730Y00686842D01*
X01153617Y00676732D01*
X01143508Y00661619D01*
X01139952Y00643788D01*
X00830123D01*
G37*
G36*
Y00763804D02*
Y00870001D01*
X00854278D01*
X00856818Y00857250D01*
X00864057Y00846430D01*
X00874878Y00839191D01*
X00887628Y00836651D01*
X00900379Y00839191D01*
X00911199Y00846430D01*
X00918438Y00857250D01*
X00920953Y00870001D01*
X00987958D01*
X00988213Y00869620D01*
X00999007Y00862406D01*
X01011784Y00859866D01*
X01024535Y00862406D01*
X01035355Y00869620D01*
X01042569Y00880440D01*
X01043236Y00883793D01*
X01139952D01*
X01143508Y00865962D01*
X01153617Y00850849D01*
X01168730Y00840740D01*
X01186561Y00837210D01*
X01204392Y00840740D01*
X01219505Y00850849D01*
X01229614Y00865962D01*
X01233145Y00883793D01*
X01259967D01*
X01263523Y00865962D01*
X01273607Y00850849D01*
X01288720Y00840740D01*
X01306551Y00837210D01*
X01324382Y00840740D01*
X01339494Y00850849D01*
X01349604Y00865962D01*
X01353160Y00883793D01*
X01379957D01*
X01383513Y00865962D01*
X01393622Y00850849D01*
X01408735Y00840740D01*
X01426566Y00837210D01*
X01444396Y00840740D01*
X01459509Y00850849D01*
X01469619Y00865962D01*
X01473149Y00883793D01*
X01499972D01*
X01503502Y00865962D01*
X01513611Y00850849D01*
X01528724Y00840740D01*
X01546555Y00837210D01*
X01564386Y00840740D01*
X01579499Y00850849D01*
X01585616Y00859993D01*
X01699285D01*
X01701826Y00847243D01*
G03X01713840Y00833222I00026544J00010587D01*
G01Y00830885D01*
X01706626Y00820065D01*
X01704086Y00807313D01*
G03X01710131Y00789305I00028831J-00000341D01*
G01X01716354Y00778180D01*
X01709115Y00767360D01*
X01708407Y00763804D01*
X01593164D01*
X01589608Y00781634D01*
X01579499Y00796747D01*
X01564386Y00806857D01*
X01546555Y00810387D01*
X01528724Y00806857D01*
X01513611Y00796747D01*
X01503502Y00781634D01*
X01499972Y00763804D01*
X01473149D01*
X01469619Y00781634D01*
X01459509Y00796747D01*
X01444396Y00806857D01*
X01426566Y00810387D01*
X01408735Y00806857D01*
X01393622Y00796747D01*
X01383513Y00781634D01*
X01379957Y00763804D01*
X01353160D01*
X01349604Y00781634D01*
X01339494Y00796747D01*
X01324382Y00806857D01*
X01306551Y00810387D01*
X01288720Y00806857D01*
X01273607Y00796747D01*
X01263523Y00781634D01*
X01259967Y00763804D01*
X01233145D01*
X01229614Y00781634D01*
X01219505Y00796747D01*
X01204392Y00806857D01*
X01186561Y00810387D01*
X01168730Y00806857D01*
X01153617Y00796747D01*
X01143508Y00781634D01*
X01139952Y00763804D01*
X00830123D01*
G37*
G36*
Y00870001D02*
Y00956666D01*
X00854278D01*
X00856818Y00943915D01*
X00864057Y00933094D01*
X00874878Y00925856D01*
X00887628Y00923316D01*
X00900379Y00925856D01*
X00911199Y00933094D01*
X00918438Y00943915D01*
X00920953Y00956666D01*
X01033873D01*
X01039038Y00948919D01*
X01049858Y00941705D01*
X01062635Y00939165D01*
X01075385Y00941705D01*
X01077367Y00943026D01*
X03002306D01*
X03004845Y00930275D01*
X03012084Y00919455D01*
X03022880Y00912215D01*
X03035656Y00909676D01*
X03048406Y00912215D01*
X03059227Y00919455D01*
X03066441Y00930275D01*
X03068980Y00943026D01*
X03132633D01*
Y00902488D01*
X02625954D01*
X02623439Y00915263D01*
X02616200Y00926084D01*
X02605380Y00933297D01*
X02592629Y00935837D01*
X02579878Y00933297D01*
G03X02564841Y00885216I00012843J-00030409D01*
G01X02566340Y00872744D01*
X02563901Y00867105D01*
X02559330Y00860247D01*
X02556790Y00847497D01*
X01763471D01*
X01765961Y00859993D01*
X01763420Y00872769D01*
X01756207Y00883565D01*
X01745387Y00890803D01*
X01732636Y00893343D01*
X01719859Y00890803D01*
X01709405Y00883793D01*
X01593164D01*
X01589608Y00901624D01*
X01579499Y00916737D01*
X01564386Y00926846D01*
X01546555Y00930402D01*
X01528724Y00926846D01*
X01513611Y00916737D01*
X01503502Y00901624D01*
X01499972Y00883793D01*
X01473149D01*
X01469619Y00901624D01*
X01459509Y00916737D01*
X01444396Y00926846D01*
X01426566Y00930402D01*
X01408735Y00926846D01*
X01393622Y00916737D01*
X01383513Y00901624D01*
X01379957Y00883793D01*
X01353160D01*
X01349604Y00901624D01*
X01339494Y00916737D01*
X01324382Y00926846D01*
X01306551Y00930402D01*
X01288720Y00926846D01*
X01273607Y00916737D01*
X01263523Y00901624D01*
X01259967Y00883793D01*
X01233145D01*
X01229614Y00901624D01*
X01219505Y00916737D01*
X01204392Y00926846D01*
X01186561Y00930402D01*
X01168730Y00926846D01*
X01153617Y00916737D01*
X01143508Y00901624D01*
X01141826Y00893191D01*
X01045108D01*
X01042569Y00905942D01*
X01035355Y00916762D01*
X01024535Y00924001D01*
X01011784Y00926541D01*
X00999007Y00924001D01*
X00988213Y00916762D01*
X00980974Y00905942D01*
X00978434Y00893191D01*
X00911574D01*
G03X00911199Y00893572I-00023973J-00023188D01*
G01X00900379Y00900811D01*
X00887628Y00903351D01*
X00874878Y00900811D01*
X00864057Y00893572D01*
X00856818Y00882752D01*
X00854278Y00870001D01*
X00830123D01*
G37*
G36*
Y00956666D02*
Y01043331D01*
X00854278D01*
X00856818Y01030579D01*
X00864057Y01019759D01*
X00874878Y01012520D01*
X00887628Y01010005D01*
G03X00911199Y01019759I00000000J00033358D01*
G01X00918082Y01030046D01*
X01629334D01*
X01631874Y01017296D01*
X01639113Y01006475D01*
X01649933Y00999236D01*
X01662684Y00996722D01*
G03X01686255Y01006475I00000000J00033359D01*
G01X01693494Y01017296D01*
X01696034Y01030046D01*
X02568363D01*
X02573121Y01022909D01*
X02583942Y01015670D01*
X02596718Y01013130D01*
X02609469Y01015670D01*
X02620290Y01022909D01*
X02623693Y01028014D01*
X03009799D01*
X03012338Y01015264D01*
X03019577Y01004443D01*
X03030398Y00997230D01*
X03043149Y00994690D01*
X03055899Y00997230D01*
X03066720Y01004443D01*
X03073959Y01015264D01*
X03076499Y01028014D01*
X03073959Y01040791D01*
X03080563Y01053745D01*
X03085668Y01057148D01*
X03092882Y01067969D01*
X03095422Y01080719D01*
X03132633D01*
Y00985012D01*
X02023466D01*
X02020926Y00997763D01*
X02013712Y01008583D01*
X02002891Y01015797D01*
X01990116Y01018337D01*
X01977364Y01015797D01*
X01966544Y01008583D01*
X01959331Y00997763D01*
X01956791Y00985012D01*
X01093470D01*
X01093419Y00985266D01*
X01086206Y00996087D01*
X01075385Y01003300D01*
X01062635Y01005840D01*
X01049858Y01003300D01*
X01039038Y00996087D01*
X01031824Y00985266D01*
X01029284Y00972490D01*
X00916962D01*
G03X00911199Y00980237I-00029360J-00015822D01*
G01X00900379Y00987476D01*
X00887628Y00990016D01*
X00874878Y00987476D01*
X00864057Y00980237D01*
X00856818Y00969417D01*
X00854278Y00956666D01*
X00830123D01*
G37*
G36*
Y01043331D02*
Y01077544D01*
X01099312D01*
X01101852Y01064793D01*
X01109091Y01053973D01*
X01119886Y01046759D01*
X01132662Y01044220D01*
X01145413Y01046759D01*
X01156234Y01053973D01*
X01172496Y01043331D01*
X00920953D01*
G03X00911199Y01066902I-00033352J00000003D01*
G01X00900379Y01074141D01*
X00887628Y01076681D01*
X00874878Y01074141D01*
X00864057Y01066902D01*
X00856818Y01056081D01*
X00854278Y01043331D01*
X00830123D01*
G37*
G36*
Y01077544D02*
Y01129995D01*
X00854278D01*
X00856818Y01117245D01*
X00864057Y01106424D01*
X00874878Y01099185D01*
X00887628Y01096671D01*
G03X00911199Y01106424I00000000J00033359D01*
G01X00918438Y01117245D01*
X00920953Y01129995D01*
X01478337D01*
X01479372Y01124788D01*
X01486611Y01113968D01*
X01497406Y01106754D01*
X01510182Y01104214D01*
X01522933Y01106754D01*
X01533754Y01113968D01*
X01540967Y01124788D01*
X01542513Y01132561D01*
X02634387D01*
X02636927Y01119810D01*
X02644165Y01108990D01*
X02654986Y01101751D01*
X02667737Y01099210D01*
X02680488Y01101751D01*
X02691308Y01108990D01*
X02698522Y01119810D01*
X02701062Y01132561D01*
X03132633D01*
Y01080719D01*
X03095422D01*
X03092882Y01093470D01*
X03085668Y01104291D01*
X03074848Y01111530D01*
X03062097Y01114070D01*
X03049321Y01111530D01*
X03038526Y01104291D01*
X03031287Y01093470D01*
X03028747Y01080719D01*
X03031287Y01067969D01*
X03024683Y01055015D01*
X03019577Y01051586D01*
X03016154Y01046480D01*
X02630043D01*
X02627503Y01059231D01*
X02620290Y01070051D01*
X02609469Y01077290D01*
X02596718Y01079830D01*
X02583942Y01077290D01*
X02575285Y01071499D01*
X01472006D01*
X01469466Y01084250D01*
X01462253Y01095070D01*
X01451432Y01102309D01*
X01438681Y01104824D01*
X01425905Y01102309D01*
X01421130Y01099109D01*
X01406195Y01098576D01*
X01395374Y01105815D01*
X01382624Y01108329D01*
G03X01363650Y01101649I-00000223J-00029653D01*
G01X01355166Y01100760D01*
X01347953Y01104824D01*
X01343736Y01111123D01*
X01332916Y01118362D01*
X01320165Y01120902D01*
X01307414Y01118362D01*
X01296594Y01111123D01*
X01289355Y01100303D01*
X01286815Y01087552D01*
X01216968D01*
X01211225Y01096137D01*
X01200430Y01103351D01*
X01187653Y01105891D01*
X01174903Y01103351D01*
X01164082Y01096137D01*
X01145413Y01108355D01*
X01132662Y01110894D01*
X01119886Y01108355D01*
X01109091Y01101141D01*
X01101852Y01090321D01*
X01099312Y01077544D01*
X00830123D01*
G37*
G36*
Y01129995D02*
Y01189304D01*
X03132633D01*
Y01132561D01*
X02701062D01*
X02698522Y01145311D01*
X02691308Y01156132D01*
X02680488Y01163346D01*
X02667737Y01165886D01*
X02654986Y01163346D01*
X02644165Y01156132D01*
X02636927Y01145311D01*
X02635383Y01137564D01*
X01543507D01*
X01540967Y01150315D01*
X01533754Y01161136D01*
X01522933Y01168349D01*
X01510182Y01170889D01*
X01497406Y01168349D01*
X01486611Y01161136D01*
X01479372Y01150315D01*
X01476832Y01137564D01*
X00920086D01*
G03X00911199Y01153567I-00032452J-00007553D01*
G01X00900379Y01160805D01*
X00887628Y01163346D01*
X00874878Y01160805D01*
X00864057Y01153567D01*
X00856818Y01142772D01*
X00854278Y01129995D01*
X00830123D01*
G37*
G36*
X00911574Y00893191D02*
X00978434D01*
X00980974Y00880440D01*
X00987958Y00870001D01*
X00920953D01*
G03X00911574Y00893191I-00033352J00000003D01*
G37*
G36*
X00916962Y00972490D02*
G01X01029284D01*
X01031824Y00959739D01*
X01033873Y00956666D01*
X00920953D01*
G03X00916962Y00972490I-00033352J00000003D01*
G37*
G36*
X00918082Y01030046D02*
G01X00918438Y01030579D01*
X00920953Y01043331D01*
X01172496D01*
X01174903Y01041755D01*
X01187653Y01039215D01*
X01200430Y01041755D01*
X01211225Y01048969D01*
X01218463Y01059790D01*
X01221004Y01072540D01*
X01290867D01*
X01296594Y01063981D01*
X01307414Y01056742D01*
X01320165Y01054202D01*
G03X01339139Y01060907I00000219J00029576D01*
G01X01347623Y01061796D01*
X01354836Y01057732D01*
X01359053Y01051433D01*
X01369873Y01044194D01*
X01382624Y01041654D01*
G03X01400175Y01047395I00000383J00028532D01*
G01X01415085Y01047928D01*
X01425905Y01040689D01*
X01438681Y01038149D01*
X01451432Y01040689D01*
X01462253Y01047928D01*
X01469466Y01058748D01*
X01472006Y01071499D01*
X02575285D01*
X02573121Y01070051D01*
X02565908Y01059231D01*
X02563368Y01046480D01*
X01691041D01*
X01686255Y01053618D01*
X01675435Y01060856D01*
X01662684Y01063397D01*
X01649933Y01060856D01*
X01639113Y01053618D01*
X01631874Y01042822D01*
X01629334Y01030046D01*
X00918082D01*
G37*
G36*
X00920086Y01137564D02*
X01476832D01*
X01478337Y01129995D01*
X00920953D01*
G03X00920953Y01130011I-00033319J00000016D01*
G03X00920086Y01137564I-00033319J00000001D01*
G37*
G36*
X01043236Y00883793D02*
G01X01045108Y00893191D01*
X01141826D01*
X01139952Y00883793D01*
X01043236D01*
G37*
G36*
X01077367Y00943026D02*
X01086206Y00948919D01*
X01093419Y00959739D01*
X01095959Y00972490D01*
X01959280D01*
X01959331Y00972236D01*
X01966544Y00961416D01*
X01977364Y00954202D01*
X01990116Y00951662D01*
X02002891Y00954202D01*
X02013712Y00961416D01*
X02020926Y00972236D01*
X02023466Y00985012D01*
X03132633D01*
Y00943026D01*
X03068980D01*
X03066441Y00955777D01*
X03059227Y00966597D01*
X03048406Y00973810D01*
X03035656Y00976350D01*
X03022880Y00973810D01*
X03012084Y00966597D01*
X03004845Y00955777D01*
X03002306Y00943026D01*
X01077367D01*
G37*
G36*
X01093470Y00985012D02*
X01956791D01*
X01959280Y00972490D01*
X01095959D01*
X01093470Y00985012D01*
G37*
G36*
X01216968Y01087552D02*
X01286815D01*
X01289355Y01074801D01*
X01290867Y01072540D01*
X01221004D01*
X01218463Y01085317D01*
X01216968Y01087552D01*
G37*
G36*
X01287471Y00335001D02*
X01304290D01*
X01305287Y00329997D01*
X01288466D01*
X01287471Y00335001D01*
G37*
G36*
X01542513Y01132561D02*
X01543507Y01137564D01*
X02635383D01*
X02634387Y01132561D01*
X01542513D01*
G37*
G36*
X01585616Y00859993D02*
X01589608Y00865962D01*
X01593164Y00883793D01*
X01709405D01*
X01709064Y00883565D01*
X01701826Y00872769D01*
X01699285Y00859993D01*
X01585616D01*
G37*
G36*
X01586499Y00621310D02*
X01589608Y00625958D01*
X01593164Y00643788D01*
X01715624D01*
X01709115Y00634060D01*
X01706575Y00621310D01*
X01586499D01*
G37*
G36*
X01691041Y01046480D02*
X02563368D01*
X02565908Y01033729D01*
X02568363Y01030046D01*
X01696034D01*
X01693494Y01042822D01*
X01691041Y01046480D01*
G37*
G36*
X01756207Y00834085D02*
Y00836422D01*
X01763420Y00847243D01*
X01763471Y00847497D01*
X02556790D01*
X02559330Y00834746D01*
X02566543Y00823925D01*
X02577364Y00816686D01*
X02590140Y00814146D01*
X02602890Y00816686D01*
X02613711Y00823925D01*
G03X02617902Y00864794I-00023654J00023075D01*
G01X02616403Y00877265D01*
X02618867Y00882904D01*
X02623439Y00889736D01*
X02625954Y00902488D01*
X03132633D01*
Y00807542D01*
X02316048D01*
X02313508Y00820293D01*
X02306295Y00831114D01*
X02295474Y00838352D01*
X02282724Y00840867D01*
X02269947Y00838352D01*
X02259127Y00831114D01*
X02251913Y00820293D01*
X02249373Y00807542D01*
X01770465D01*
G03X01756207Y00834085I-00033069J-00000663D01*
G37*
G36*
X01761007Y00783717D02*
G03X01770465Y00807542I-00023611J00023163D01*
G01X02249373D01*
X02251913Y00794791D01*
X02259127Y00783971D01*
X02269947Y00776732D01*
X02282724Y00774192D01*
X02295474Y00776732D01*
X02306295Y00783971D01*
X02313508Y00794791D01*
X02316048Y00807542D01*
X03132633D01*
Y00724992D01*
X03042641D01*
X03042615Y00724967D01*
Y00709966D01*
X02660955D01*
G03X02660955Y00710006I-00033262J00000000D01*
G01X02658440Y00722757D01*
X02651201Y00733578D01*
X02640381Y00740817D01*
X02627630Y00743331D01*
X02614879Y00740817D01*
X02604059Y00733578D01*
X02601663Y00729996D01*
X02418461D01*
X02415921Y00742772D01*
X02408708Y00753567D01*
X02397887Y00760806D01*
X02385136Y00763346D01*
X02372360Y00760806D01*
X02361540Y00753567D01*
X02360827Y00752500D01*
X01973453D01*
G03X01963700Y00776072I-00033353J00000003D01*
G01X01952879Y00783310D01*
X01940128Y00785850D01*
X01927378Y00783310D01*
X01916557Y00776072D01*
X01909318Y00765251D01*
X01907260Y00754921D01*
X01773277D01*
G03X01767231Y00772617I-00028918J00000000D01*
G01X01761007Y00783717D01*
G37*
G36*
X01772857Y00752500D02*
X01773275Y00754609D01*
G03X01773277Y00754921I-00028916J00000313D01*
G01X01907260D01*
X01906778Y00752500D01*
X01772857D01*
G37*
G36*
X01964413Y00729996D02*
X01970938Y00739749D01*
X01973453Y00752500D01*
X02360827D01*
X02354326Y00742772D01*
X02351786Y00729996D01*
X01964413D01*
G37*
G36*
X01966595Y00555498D02*
X01969872Y00567131D01*
G02X01981276Y00576453I00019213J-00011869D01*
G01X01988490Y00587274D01*
X01991030Y00600024D01*
X01989045Y00610007D01*
X02726208D01*
X02731059Y00585546D01*
X02744927Y00564795D01*
X02765654Y00550926D01*
X02790139Y00546075D01*
X02814599Y00550926D01*
X02835326Y00564795D01*
X02849194Y00585546D01*
X02853053Y00605003D01*
X02921787D01*
X02924328Y00592252D01*
X02931541Y00581432D01*
X02942362Y00574192D01*
X02955112Y00571653D01*
X02967889Y00574192D01*
X02978709Y00581432D01*
X02985923Y00592252D01*
X02988463Y00605003D01*
X03042615D01*
Y00467513D01*
X02459050D01*
X02451888Y00480187D01*
X02456155Y00490474D01*
X02458390Y00507492D01*
Y00527507D01*
X02456155Y00544525D01*
G03X02326869Y00527507I-00063517J-00017060D01*
G01Y00507492D01*
X02329104Y00490474D01*
X02333371Y00480187D01*
X02326208Y00467513D01*
X01974063D01*
X01966900Y00480187D01*
X01971141Y00490474D01*
X01973402Y00507492D01*
Y00527507D01*
X01971141Y00544525D01*
X01966595Y00555498D01*
G37*
G36*
X02411095Y00710006D02*
X02415921Y00717245D01*
X02418461Y00729996D01*
X02601663D01*
X02596820Y00722757D01*
X02594280Y00710006D01*
X02411095D01*
G37*
G36*
X02623693Y01028014D02*
X02627503Y01033729D01*
X02630043Y01046480D01*
X03016154D01*
X03012338Y01040791D01*
X03009799Y01028014D01*
X02623693D01*
G37*
G36*
X02853053Y00605003D02*
X02854046Y00610007D01*
X02922784D01*
X02921787Y00605003D01*
X02853053D01*
G37*
G36*
X02626746Y01030554D02*
X03007258D01*
G02X03007258Y01025474I00000000J-00002540D01*
G01X02626746D01*
G02X02626746Y01030554I00000000J00002540D01*
G37*
G36*
X03097962Y01083259D02*
G01X03130093D01*
G02X03130093Y01078179I00000000J-00002540D01*
G01X03097962D01*
G02X03097962Y01083259I00000000J00002540D01*
G37*
G36*
X01081946Y00945566D02*
G01X02999765D01*
G02X02999765Y00940486I00000000J-00002540D01*
G01X01081946D01*
G02X01081946Y00945566I00000000J00002540D01*
G37*
G36*
X03071520D02*
G01X03130093D01*
G02X03130093Y00940486I00000000J-00002540D01*
G01X03071520D01*
G02X03071520Y00945566I00000000J00002540D01*
G37*
G36*
X02855642Y00607543D02*
G01X02919248D01*
G02X02919248Y00602463I00000000J-00002540D01*
G01X02855642D01*
G02X02855642Y00607543I00000000J00002540D01*
G37*
G36*
X02991002D02*
G01X03040075D01*
G02X03040075Y00602463I00000000J-00002540D01*
G01X02991002D01*
G02X02991002Y00607543I00000000J00002540D01*
G37*
G36*
X01991635Y00612546D02*
G01X02723668D01*
G02X02723668Y00607467I00000000J-00002540D01*
G01X01991635D01*
G02X01991635Y00612546I00000000J00002540D01*
G37*
G36*
X02856586D02*
G01X02920195D01*
G02X02920195Y00607467I00000000J-00002540D01*
G01X02856586D01*
G02X02856586Y00612546I00000000J00002540D01*
G37*
G36*
X01545102Y01135101D02*
G01X02631847D01*
G02X02631847Y01130021I00000000J-00002540D01*
G01X01545102D01*
G02X01545102Y01135101I00000000J00002540D01*
G37*
G36*
X02703602D02*
G01X03130093D01*
G02X03130093Y01130021I00000000J-00002540D01*
G01X02703602D01*
G02X02703602Y01135101I00000000J00002540D01*
G37*
G36*
X02414148Y00712546D02*
G01X02591740D01*
G02X02591740Y00707466I00000000J-00002540D01*
G01X02414148D01*
G02X02414148Y00712546I00000000J00002540D01*
G37*
G36*
X02663495Y00712506D02*
G01X03040075D01*
G02X03040075Y00707426I00000000J-00002540D01*
G01X02663495D01*
G02X02663495Y00712506I00000000J00002540D01*
G37*
G36*
X01694100Y01049020D02*
G01X02560828D01*
G02X02560828Y01043940I00000000J-00002540D01*
G01X01694100D01*
G02X01694100Y01049020I00000000J00002540D01*
G37*
G36*
X02632583D02*
G01X03013095D01*
G02X03013095Y01043940I00000000J-00002540D01*
G01X02632583D01*
G02X02632583Y01049020I00000000J00002540D01*
G37*
G36*
X01766061Y00850037D02*
G01X02554249D01*
G02X02554249Y00844957I00000000J-00002540D01*
G01X01766061D01*
G02X01766061Y00850037I00000000J00002540D01*
G37*
G36*
X02628493Y00905028D02*
G01X03130093D01*
G02X03130093Y00899948I00000000J-00002540D01*
G01X02628493D01*
G02X02628493Y00905028I00000000J00002540D01*
G37*
G36*
X01967469Y00732536D02*
G01X02349246D01*
G02X02349246Y00727456I00000000J-00002540D01*
G01X01967469D01*
G02X01967469Y00732536I00000000J00002540D01*
G37*
G36*
X02421001D02*
G01X02598607D01*
G02X02598607Y00727456I00000000J-00002540D01*
G01X02421001D01*
G02X02421001Y00732536I00000000J00002540D01*
G37*
G36*
X01773006Y00810082D02*
G01X02246833D01*
G02X02246833Y00805002I00000000J-00002540D01*
G01X01773006D01*
G02X01773006Y00810082I00000000J00002540D01*
G37*
G36*
X02318588D02*
G01X03130093D01*
G02X03130093Y00805002I00000000J-00002540D01*
G01X02318588D01*
G02X02318588Y00810082I00000000J00002540D01*
G37*
G36*
X01096060Y00987552D02*
G01X01954250D01*
G02X01954250Y00982472I00000000J-00002540D01*
G01X01096060D01*
G02X01096060Y00987552I00000000J00002540D01*
G37*
G36*
X02026005D02*
G01X03130093D01*
G02X03130093Y00982472I00000000J-00002540D01*
G01X02026005D01*
G02X02026005Y00987552I00000000J00002540D01*
G37*
G36*
X01775446Y00755040D02*
G01X01904238D01*
G02X01904238Y00749960I00000000J-00002540D01*
G01X01775446D01*
G02X01775446Y00755040I00000000J00002540D01*
G37*
G36*
X01975993D02*
G01X02357772D01*
G02X02357772Y00749960I00000000J-00002540D01*
G01X01975993D01*
G02X01975993Y00755040I00000000J00002540D01*
G37*
G36*
X01589555Y00623850D02*
G01X01704035D01*
G02X01704035Y00618770I00000000J-00002540D01*
G01X01589555D01*
G02X01589555Y00623850I00000000J00002540D01*
G37*
G36*
X01775815D02*
G01X01928826D01*
G02X01928826Y00618770I00000000J-00002540D01*
G01X01775815D01*
G02X01775815Y00623850I00000000J00002540D01*
G37*
G36*
X01588671Y00862533D02*
G01X01696745D01*
G02X01696745Y00857453I00000000J-00002540D01*
G01X01588671D01*
G02X01588671Y00862533I00000000J00002540D01*
G37*
G36*
X01775817Y00757461D02*
G01X01904671D01*
G02X01904671Y00752381I00000000J-00002540D01*
G01X01775817D01*
G02X01775817Y00757461I00000000J00002540D01*
G37*
G36*
X00920922Y01032586D02*
G01X01626794D01*
G02X01626794Y01027506I00000000J-00002540D01*
G01X00920922D01*
G02X00920922Y01032586I00000000J00002540D01*
G37*
G36*
X01698574D02*
G01X02565310D01*
G02X02565310Y01027506I00000000J-00002540D01*
G01X01698574D01*
G02X01698574Y01032586I00000000J00002540D01*
G37*
G36*
X01315999Y00107543D02*
G01X01624254D01*
G02X01624254Y00102464I00000000J-00002540D01*
G01X01315999D01*
G02X01315999Y00107543I00000000J00002540D01*
G37*
G36*
X01696009D02*
G01X01710080D01*
G02X01710080Y00102464I00000000J-00002540D01*
G01X01696009D01*
G02X01696009Y00107543I00000000J00002540D01*
G37*
G36*
X01475689Y00886333D02*
G01X01497432D01*
G02X01497432Y00881253I00000000J-00002540D01*
G01X01475689D01*
G02X01475689Y00886333I00000000J00002540D01*
G37*
G36*
X01595704D02*
G01X01706160D01*
G02X01706160Y00881253I00000000J-00002540D01*
G01X01595704D01*
G02X01595704Y00886333I00000000J00002540D01*
G37*
G36*
X01475689Y00766344D02*
G01X01497432D01*
G02X01497432Y00761263I00000000J-00002540D01*
G01X01475689D01*
G02X01475689Y00766344I00000000J00002540D01*
G37*
G36*
X01595704D02*
G01X01705817D01*
G02X01705817Y00761263I00000000J-00002540D01*
G01X01595704D01*
G02X01595704Y00766344I00000000J00002540D01*
G37*
G36*
X01475689Y00646328D02*
G01X01497432D01*
G02X01497432Y00641249I00000000J-00002540D01*
G01X01475689D01*
G02X01475689Y00646328I00000000J00002540D01*
G37*
G36*
X01595704D02*
G01X01712568D01*
G02X01712568Y00641249I00000000J-00002540D01*
G01X01595704D01*
G02X01595704Y00646328I00000000J00002540D01*
G37*
G36*
X01475689Y00526339D02*
G01X01497432D01*
G02X01497432Y00521259I00000000J-00002540D01*
G01X01475689D01*
G02X01475689Y00526339I00000000J00002540D01*
G37*
G36*
X01595704D02*
G01X01839316D01*
G02X01839316Y00521259I00000000J-00002540D01*
G01X01595704D01*
G02X01595704Y00526339I00000000J00002540D01*
G37*
G36*
X00922689Y01140105D02*
G01X01474292D01*
G02X01474292Y01135025I00000000J-00002540D01*
G01X00922689D01*
G02X00922689Y01140105I00000000J00002540D01*
G37*
G36*
X01546047D02*
G01X02632793D01*
G02X02632793Y01135025I00000000J-00002540D01*
G01X01546047D01*
G02X01546047Y01140105I00000000J00002540D01*
G37*
G36*
X01355699Y00886333D02*
G01X01377417D01*
G02X01377417Y00881253I00000000J-00002540D01*
G01X01355699D01*
G02X01355699Y00886333I00000000J00002540D01*
G37*
G36*
Y00766344D02*
G01X01377417D01*
G02X01377417Y00761263I00000000J-00002540D01*
G01X01355699D01*
G02X01355699Y00766344I00000000J00002540D01*
G37*
G36*
Y00646328D02*
G01X01377417D01*
G02X01377417Y00641249I00000000J-00002540D01*
G01X01355699D01*
G02X01355699Y00646328I00000000J00002540D01*
G37*
G36*
Y00526339D02*
G01X01377417D01*
G02X01377417Y00521259I00000000J-00002540D01*
G01X01355699D01*
G02X01355699Y00526339I00000000J00002540D01*
G37*
G36*
X01290061Y00337541D02*
G01X01301750D01*
G02X01301750Y00332460I00000000J-00002540D01*
G01X01290061D01*
G02X01290061Y00337541I00000000J00002540D01*
G37*
G36*
X01373505D02*
G01X01710080D01*
G02X01710080Y00332460I00000000J-00002540D01*
G01X01373505D01*
G02X01373505Y00337541I00000000J00002540D01*
G37*
G36*
X01220024Y01090092D02*
G01X01284275D01*
G02X01284275Y01085012I00000000J-00002540D01*
G01X01220024D01*
G02X01220024Y01090092I00000000J00002540D01*
G37*
G36*
X01474546Y01074039D02*
G01X02571034D01*
G02X02571034Y01068959I00000000J-00002540D01*
G01X01474546D01*
G02X01474546Y01074039I00000000J00002540D01*
G37*
G36*
X01235685Y00886333D02*
G01X01257427D01*
G02X01257427Y00881253I00000000J-00002540D01*
G01X01235685D01*
G02X01235685Y00886333I00000000J00002540D01*
G37*
G36*
Y00766344D02*
G01X01257427D01*
G02X01257427Y00761263I00000000J-00002540D01*
G01X01235685D01*
G02X01235685Y00766344I00000000J00002540D01*
G37*
G36*
Y00646328D02*
G01X01257427D01*
G02X01257427Y00641249I00000000J-00002540D01*
G01X01235685D01*
G02X01235685Y00646328I00000000J00002540D01*
G37*
G36*
Y00526339D02*
G01X01257427D01*
G02X01257427Y00521259I00000000J-00002540D01*
G01X01235685D01*
G02X01235685Y00526339I00000000J00002540D01*
G37*
G36*
X01045826Y00886333D02*
G01X01137412D01*
G02X01137412Y00881253I00000000J-00002540D01*
G01X01045826D01*
G02X01045826Y00886333I00000000J00002540D01*
G37*
G36*
X00832663Y00766344D02*
G01X01137412D01*
G02X01137412Y00761263I00000000J-00002540D01*
G01X00832663D01*
G02X00832663Y00766344I00000000J00002540D01*
G37*
G36*
Y00646328D02*
G01X01137412D01*
G02X01137412Y00641249I00000000J-00002540D01*
G01X00832663D01*
G02X00832663Y00646328I00000000J00002540D01*
G37*
G36*
Y00526339D02*
G01X01137412D01*
G02X01137412Y00521259I00000000J-00002540D01*
G01X00832663D01*
G02X00832663Y00526339I00000000J00002540D01*
G37*
G36*
Y00110033D02*
G01X01121740D01*
G02X01121740Y00104953I00000000J-00002540D01*
G01X00832663D01*
G02X00832663Y00110033I00000000J00002540D01*
G37*
G36*
Y01080084D02*
G01X00878963D01*
G02X00878963Y01075004I00000000J-00002540D01*
G01X00832663D01*
G02X00832663Y01080084I00000000J00002540D01*
G37*
G36*
X00896294D02*
G01X01096772D01*
G02X01096772Y01075004I00000000J-00002540D01*
G01X00896294D01*
G02X00896294Y01080084I00000000J00002540D01*
G37*
G36*
X01223544Y01075081D02*
G01X01287811D01*
G02X01287811Y01070001I00000000J-00002540D01*
G01X01223544D01*
G02X01223544Y01075081I00000000J00002540D01*
G37*
G36*
X00832663Y00397535D02*
G01X01049249D01*
G02X01049249Y00392456I00000000J-00002540D01*
G01X00832663D01*
G02X00832663Y00397535I00000000J00002540D01*
G37*
G36*
X01291006Y00332537D02*
G01X01302697D01*
G02X01302697Y00327457I00000000J-00002540D01*
G01X01291006D01*
G02X01291006Y00332537I00000000J00002540D01*
G37*
G36*
X00919818Y00975030D02*
G01X01026744D01*
G02X01026744Y00969950I00000000J-00002540D01*
G01X00919818D01*
G02X00919818Y00975030I00000000J00002540D01*
G37*
G36*
X01098499D02*
G01X01956690D01*
G02X01956690Y00969950I00000000J-00002540D01*
G01X01098499D01*
G02X01098499Y00975030I00000000J00002540D01*
G37*
G36*
X00914998Y00895731D02*
G01X00975893D01*
G02X00975893Y00890651I00000000J-00002540D01*
G01X00914998D01*
G02X00914998Y00895731I00000000J00002540D01*
G37*
G36*
X01047649D02*
G01X01139236D01*
G02X01139236Y00890651I00000000J-00002540D01*
G01X01047649D01*
G02X01047649Y00895731I00000000J00002540D01*
G37*
G36*
X00832663Y01132535D02*
G01X00851738D01*
G02X00851738Y01127455I00000000J-00002540D01*
G01X00832663D01*
G02X00832663Y01132535I00000000J00002540D01*
G37*
G36*
X00923493D02*
G01X01475747D01*
G02X01475747Y01127455I00000000J-00002540D01*
G01X00923493D01*
G02X00923493Y01132535I00000000J00002540D01*
G37*
G36*
X00832663Y01045871D02*
G01X00851738D01*
G02X00851738Y01040791I00000000J-00002540D01*
G01X00832663D01*
G02X00832663Y01045871I00000000J00002540D01*
G37*
G36*
X00923493D02*
G01X01124107D01*
G02X01124107Y01040791I00000000J-00002540D01*
G01X00923493D01*
G02X00923493Y01045871I00000000J00002540D01*
G37*
G36*
X01141201D02*
G01X01167857D01*
G02X01167857Y01040791I00000000J-00002540D01*
G01X01141201D01*
G02X01141201Y01045871I00000000J00002540D01*
G37*
G36*
X00832663Y00959206D02*
G01X00851738D01*
G02X00851738Y00954126I00000000J-00002540D01*
G01X00832663D01*
G02X00832663Y00959206I00000000J00002540D01*
G37*
G36*
X00923493D02*
G01X01030820D01*
G02X01030820Y00954126I00000000J-00002540D01*
G01X00923493D01*
G02X00923493Y00959206I00000000J00002540D01*
G37*
G36*
X00832663Y00872541D02*
G01X00851738D01*
G02X00851738Y00867461I00000000J-00002540D01*
G01X00832663D01*
G02X00832663Y00872541I00000000J00002540D01*
G37*
G36*
X00923493D02*
G01X00984902D01*
G02X00984902Y00867461I00000000J-00002540D01*
G01X00923493D01*
G02X00923493Y00872541I00000000J00002540D01*
G37*
G36*
X03022626Y00020727D02*
G01Y00087503D01*
X03296793D01*
X03299333Y00074752D01*
X03306546Y00063932D01*
X03317367Y00056693D01*
X03330118Y00054153D01*
X03342894Y00056693D01*
X03353714Y00063932D01*
X03360928Y00074752D01*
X03363468Y00087503D01*
X03434283D01*
X03436823Y00074752D01*
X03444037Y00063932D01*
X03454857Y00056693D01*
X03467634Y00054153D01*
X03480384Y00056693D01*
X03491205Y00063932D01*
X03498418Y00074752D01*
X03500958Y00087503D01*
X03779419D01*
Y00020727D01*
X03022626D01*
G37*
G36*
Y00087503D02*
Y00205003D01*
X03291916D01*
X03294456Y00192252D01*
X03301695Y00181432D01*
X03312516Y00174219D01*
X03325267Y00171678D01*
X03338017Y00174219D01*
X03348838Y00181432D01*
X03356076Y00192252D01*
X03358616Y00205003D01*
X03779419D01*
Y00087503D01*
X03500958D01*
X03498418Y00100254D01*
X03491205Y00111074D01*
X03480384Y00118313D01*
X03467634Y00120853D01*
X03454857Y00118313D01*
X03444037Y00111074D01*
X03436823Y00100254D01*
X03434283Y00087503D01*
X03363468D01*
X03360928Y00100254D01*
X03353714Y00111074D01*
X03342894Y00118313D01*
X03330118Y00120853D01*
X03317367Y00118313D01*
X03306546Y00111074D01*
X03299333Y00100254D01*
X03296793Y00087503D01*
X03022626D01*
G37*
G36*
Y00205003D02*
Y00277495D01*
X03059277D01*
X03061818Y00264744D01*
X03069057Y00253924D01*
X03079877Y00246710D01*
X03092628Y00244170D01*
X03105379Y00246710D01*
X03116199Y00253924D01*
X03123438Y00264744D01*
X03124607Y00270637D01*
X03137078Y00278867D01*
X03138221Y00279019D01*
X03143555Y00277394D01*
X03144672Y00275616D01*
X03146831Y00264744D01*
X03154045Y00253924D01*
X03164866Y00246710D01*
X03177616Y00244170D01*
X03190392Y00246710D01*
X03201213Y00253924D01*
X03203601Y00257505D01*
X03681781D01*
X03684321Y00244729D01*
X03691560Y00233934D01*
X03702380Y00226695D01*
X03715131Y00224155D01*
X03727882Y00226695D01*
X03738702Y00233934D01*
X03745916Y00244729D01*
X03748456Y00257505D01*
X03779419D01*
Y00205003D01*
X03358616D01*
X03356076Y00217779D01*
X03348838Y00228575D01*
X03338017Y00235814D01*
X03325267Y00238353D01*
X03312516Y00235814D01*
X03301695Y00228575D01*
X03294456Y00217779D01*
X03291916Y00205003D01*
X03022626D01*
G37*
G36*
Y00277495D02*
Y00417500D01*
X03335096D01*
X03339998Y00414223D01*
X03352774Y00411683D01*
X03365525Y00414223D01*
X03370427Y00417500D01*
X03779419D01*
Y00350012D01*
X03748456D01*
X03745916Y00362763D01*
X03738702Y00373583D01*
X03727882Y00380797D01*
X03715131Y00383337D01*
X03702380Y00380797D01*
X03691560Y00373583D01*
X03684321Y00362763D01*
X03681781Y00350012D01*
X03208482D01*
X03210967Y00362509D01*
X03208427Y00375260D01*
X03201213Y00386080D01*
X03190392Y00393293D01*
X03177616Y00395833D01*
X03164866Y00393293D01*
X03154045Y00386080D01*
X03146831Y00375260D01*
X03144672Y00364388D01*
X03143555Y00362585D01*
X03138221Y00360985D01*
X03137078Y00361137D01*
X03124607Y00369367D01*
X03123438Y00375260D01*
X03116199Y00386080D01*
X03105379Y00393293D01*
X03092628Y00395833D01*
X03079877Y00393293D01*
X03069057Y00386080D01*
X03061818Y00375260D01*
X03059277Y00362509D01*
X03061818Y00349732D01*
X03069057Y00338912D01*
X03079877Y00331699D01*
X03092628Y00329159D01*
X03092857Y00329209D01*
X03101822Y00320218D01*
X03101772Y00319989D01*
X03101822Y00319786D01*
X03092857Y00310794D01*
X03092628Y00310845D01*
X03079877Y00308305D01*
X03069057Y00301066D01*
X03061818Y00290271D01*
X03059277Y00277495D01*
X03022626D01*
G37*
G36*
X03176473Y00319989D02*
X03177616Y00329159D01*
X03190392Y00331699D01*
X03201213Y00338912D01*
X03208427Y00349732D01*
X03208482Y00350012D01*
X03681781D01*
X03684321Y00337236D01*
X03691560Y00326415D01*
X03702380Y00319202D01*
X03715131Y00316662D01*
X03727882Y00319202D01*
X03738702Y00326415D01*
X03745916Y00337236D01*
X03748456Y00350012D01*
X03779419D01*
Y00257505D01*
X03748456D01*
X03745916Y00270256D01*
X03738702Y00281077D01*
X03727882Y00288290D01*
X03715131Y00290830D01*
X03702380Y00288290D01*
X03691560Y00281077D01*
X03689164Y00277495D01*
X03210967D01*
X03208427Y00290271D01*
X03201213Y00301066D01*
X03190392Y00308305D01*
X03177616Y00310845D01*
X03176473Y00319989D01*
G37*
G36*
X03203601Y00257505D02*
X03208427Y00264744D01*
X03210967Y00277495D01*
X03689164D01*
X03684321Y00270256D01*
X03681781Y00257505D01*
X03203601D01*
G37*
G36*
X03211072Y00352552D02*
X03679241D01*
G02X03679241Y00347472I00000000J-00002540D01*
G01X03211072D01*
G02X03211072Y00352552I00000000J00002540D01*
G37*
G36*
X03750996D02*
G01X03776879D01*
G02X03776879Y00347472I00000000J-00002540D01*
G01X03750996D01*
G02X03750996Y00352552I00000000J00002540D01*
G37*
G36*
X03206653Y00260045D02*
G01X03679241D01*
G02X03679241Y00254965I00000000J-00002540D01*
G01X03206653D01*
G02X03206653Y00260045I00000000J00002540D01*
G37*
G36*
X03750996D02*
G01X03776879D01*
G02X03776879Y00254965I00000000J-00002540D01*
G01X03750996D01*
G02X03750996Y00260045I00000000J00002540D01*
G37*
G36*
X03366008Y00090043D02*
G01X03431743D01*
G02X03431743Y00084963I00000000J-00002540D01*
G01X03366008D01*
G02X03366008Y00090043I00000000J00002540D01*
G37*
G36*
X03503498D02*
G01X03776879D01*
G02X03776879Y00084963I00000000J-00002540D01*
G01X03503498D01*
G02X03503498Y00090043I00000000J00002540D01*
G37*
G36*
X03025165D02*
G01X03294253D01*
G02X03294253Y00084963I00000000J-00002540D01*
G01X03025165D01*
G02X03025165Y00090043I00000000J00002540D01*
G37*
G36*
Y00207544D02*
G01X03289376D01*
G02X03289376Y00202464I00000000J-00002540D01*
G01X03025165D01*
G02X03025165Y00207544I00000000J00002540D01*
G37*
G36*
X03361157D02*
G01X03776879D01*
G02X03776879Y00202464I00000000J-00002540D01*
G01X03361157D01*
G02X03361157Y00207544I00000000J00002540D01*
G37*
G36*
X03025165Y00280035D02*
G01X03056738D01*
G02X03056738Y00274955I00000000J-00002540D01*
G01X03025165D01*
G02X03025165Y00280035I00000000J00002540D01*
G37*
G36*
X03213506D02*
G01X03686108D01*
G02X03686108Y00274955I00000000J-00002540D01*
G01X03213506D01*
G02X03213506Y00280035I00000000J00002540D01*
G37*
G36*
X03092628Y00467513D02*
G01Y00563753D01*
X03248025D01*
X03250565Y00551002D01*
X03257804Y00540182D01*
X03268624Y00532943D01*
X03281375Y00530403D01*
X03294126Y00532943D01*
X03304947Y00540182D01*
X03312185Y00551002D01*
X03314726Y00563753D01*
X03779419D01*
Y00467513D01*
X03494964D01*
X03493440Y00475260D01*
X03486201Y00486080D01*
X03475381Y00493293D01*
X03462630Y00495834D01*
X03449853Y00493293D01*
X03439059Y00486080D01*
G03X03430270Y00467513I00021027J-00021316D01*
G01X03377083D01*
G03X03328467Y00467513I-00024308J-00022518D01*
G01X03304362D01*
X03295015Y00480187D01*
G03X03262630Y00518338I-00032647J00005108D01*
G03X03230245Y00480187I00000249J-00033032D01*
G01X03220873Y00467513D01*
X03092628D01*
G37*
G36*
Y00563753D02*
Y00605003D01*
X03674288D01*
X03676828Y00592252D01*
X03684042Y00581432D01*
X03694862Y00574192D01*
X03707612Y00571653D01*
X03720389Y00574192D01*
X03731209Y00581432D01*
X03738423Y00592252D01*
X03740963Y00605003D01*
X03779419D01*
Y00563753D01*
X03314726D01*
X03312185Y00576504D01*
X03304947Y00587324D01*
X03294126Y00594563D01*
X03281375Y00597078D01*
X03268624Y00594563D01*
X03257804Y00587324D01*
X03250565Y00576504D01*
X03248025Y00563753D01*
X03092628D01*
G37*
G36*
Y00605003D02*
Y00675005D01*
X03779419D01*
Y00605003D01*
X03740963D01*
X03738423Y00617754D01*
X03731209Y00628574D01*
X03720389Y00635813D01*
X03707612Y00638327D01*
X03694862Y00635813D01*
X03684042Y00628574D01*
X03676828Y00617754D01*
X03674288Y00605003D01*
X03092628D01*
G37*
G36*
X03095168Y00607543D02*
X03671748D01*
G02X03671748Y00602463I00000000J-00002540D01*
G01X03095168D01*
G02X03095168Y00607543I00000000J00002540D01*
G37*
G36*
X03743503D02*
G01X03776879D01*
G02X03776879Y00602463I00000000J-00002540D01*
G01X03743503D01*
G02X03743503Y00607543I00000000J00002540D01*
G37*
G36*
X03095168Y00566293D02*
G01X03245485D01*
G02X03245485Y00561213I00000000J-00002540D01*
G01X03095168D01*
G02X03095168Y00566293I00000000J00002540D01*
G37*
G36*
X03317266D02*
G01X03776879D01*
G02X03776879Y00561213I00000000J-00002540D01*
G01X03317266D01*
G02X03317266Y00566293I00000000J00002540D01*
G37*
G36*
X03182620Y00724992D02*
G01Y00780009D01*
X03234283D01*
X03236824Y00767233D01*
X03244037Y00756437D01*
X03254858Y00749199D01*
X03267634Y00746659D01*
X03280384Y00749199D01*
X03291205Y00756437D01*
X03297504Y00765861D01*
X03299257Y00767435D01*
X03311982Y00770306D01*
X03317367Y00766699D01*
X03330118Y00764159D01*
X03342894Y00766699D01*
X03353714Y00773938D01*
X03360928Y00784733D01*
X03363468Y00797509D01*
X03438275D01*
X03439313Y00792251D01*
X03446552Y00781431D01*
X03457372Y00774192D01*
X03470123Y00771652D01*
X03482874Y00774192D01*
X03493694Y00781431D01*
X03500933Y00792251D01*
X03503473Y00805002D01*
X03614293D01*
X03616833Y00792251D01*
X03624047Y00781431D01*
X03634867Y00774192D01*
X03647618Y00771652D01*
X03660394Y00774192D01*
X03671215Y00781431D01*
X03678428Y00792251D01*
X03680968Y00805002D01*
X03779419D01*
Y00724992D01*
X03495980D01*
G03X03452368Y00743306I-00030902J-00012505D01*
G01X03441548Y00736066D01*
X03434334Y00725271D01*
X03434283Y00724992D01*
X03182620D01*
G37*
G36*
Y00780009D02*
Y00947496D01*
X03209290D01*
X03211830Y00934746D01*
X03219044Y00923925D01*
X03229864Y00916686D01*
X03242615Y00914172D01*
G03X03266212Y00923925I00000016J00033383D01*
G01X03270259Y00929995D01*
X03446780D01*
X03449320Y00917245D01*
X03456559Y00906425D01*
X03467380Y00899185D01*
X03480130Y00896671D01*
G03X03503701Y00906425I00000000J00033359D01*
G01X03510915Y00917245D01*
X03513455Y00929995D01*
X03779419D01*
Y00805002D01*
X03680968D01*
X03678428Y00817753D01*
X03671215Y00828574D01*
X03660394Y00835812D01*
X03647618Y00838327D01*
X03634867Y00835812D01*
X03624047Y00828574D01*
X03616833Y00817753D01*
X03614293Y00805002D01*
X03503473D01*
X03500933Y00817753D01*
X03493694Y00828574D01*
X03482874Y00835812D01*
X03470123Y00838327D01*
X03457372Y00835812D01*
X03446552Y00828574D01*
X03439313Y00817753D01*
X03436798Y00805002D01*
X03361975D01*
X03360928Y00810260D01*
X03353714Y00821080D01*
X03342894Y00828294D01*
X03330118Y00830834D01*
X03317367Y00828294D01*
X03306546Y00821080D01*
X03300247Y00811631D01*
X03298495Y00810057D01*
X03285770Y00807212D01*
X03280384Y00810794D01*
X03267634Y00813333D01*
X03254858Y00810794D01*
X03244037Y00803580D01*
X03236824Y00792760D01*
X03234283Y00780009D01*
X03182620D01*
G37*
G36*
Y00947496D02*
Y01077494D01*
X03369285D01*
X03371824Y01064743D01*
X03379064Y01053922D01*
X03389858Y01046708D01*
X03402635Y01044169D01*
X03415386Y01046708D01*
X03426206Y01053922D01*
G03X03435198Y01073709I-00021593J00021749D01*
G01X03438678Y01078789D01*
X03447796Y01083107D01*
X03455136Y01081659D01*
X03467888Y01084199D01*
X03478708Y01091438D01*
X03485922Y01102233D01*
X03488461Y01115009D01*
X03779419D01*
Y00929995D01*
X03513455D01*
X03510915Y00942772D01*
X03503701Y00953567D01*
X03492881Y00960806D01*
X03480130Y00963346D01*
X03467380Y00960806D01*
X03456559Y00953567D01*
X03452488Y00947496D01*
X03275965D01*
X03273425Y00960273D01*
X03266212Y00971068D01*
X03255391Y00978307D01*
X03242615Y00980847D01*
X03229864Y00978307D01*
X03219044Y00971068D01*
X03211830Y00960273D01*
X03209290Y00947496D01*
X03182620D01*
G37*
G36*
Y01077494D02*
Y01189304D01*
X03779419D01*
Y01115009D01*
X03488461D01*
X03485922Y01127760D01*
X03478708Y01138581D01*
X03467888Y01145794D01*
X03455136Y01148334D01*
X03442360Y01145794D01*
X03431540Y01138581D01*
X03424327Y01127760D01*
X03422549Y01118794D01*
X03419068Y01113714D01*
X03409950Y01109371D01*
X03402635Y01110844D01*
X03389858Y01108304D01*
X03379064Y01101065D01*
X03371824Y01090270D01*
X03369285Y01077494D01*
X03182620D01*
G37*
G36*
X03270259Y00929995D02*
X03273425Y00934746D01*
X03275965Y00947496D01*
X03452488D01*
X03449320Y00942772D01*
X03446780Y00929995D01*
X03270259D01*
G37*
G36*
X03361975Y00805002D02*
X03436798D01*
X03438275Y00797509D01*
X03363468D01*
X03361975Y00805002D01*
G37*
G36*
X03506013Y00807542D02*
X03611753D01*
G02X03611753Y00802462I00000000J-00002540D01*
G01X03506013D01*
G02X03506013Y00807542I00000000J00002540D01*
G37*
G36*
X03683508D02*
G01X03776879D01*
G02X03776879Y00802462I00000000J-00002540D01*
G01X03683508D01*
G02X03683508Y00807542I00000000J00002540D01*
G37*
G36*
X03273311Y00932536D02*
G01X03444240D01*
G02X03444240Y00927456I00000000J-00002540D01*
G01X03273311D01*
G02X03273311Y00932536I00000000J00002540D01*
G37*
G36*
X03515995D02*
G01X03776879D01*
G02X03776879Y00927456I00000000J-00002540D01*
G01X03515995D01*
G02X03515995Y00932536I00000000J00002540D01*
G37*
G36*
X03364565Y00807542D02*
G01X03434258D01*
G02X03434258Y00802462I00000000J-00002540D01*
G01X03364565D01*
G02X03364565Y00807542I00000000J00002540D01*
G37*
G36*
X03185160Y01080033D02*
G01X03366745D01*
G02X03366745Y01074954I00000000J-00002540D01*
G01X03185160D01*
G02X03185160Y01080033I00000000J00002540D01*
G37*
G36*
X03491001Y01117549D02*
G01X03776879D01*
G02X03776879Y01112469I00000000J-00002540D01*
G01X03491001D01*
G02X03491001Y01117549I00000000J00002540D01*
G37*
G36*
X03185160Y00782549D02*
G01X03231743D01*
G02X03231743Y00777469I00000000J-00002540D01*
G01X03185160D01*
G02X03185160Y00782549I00000000J00002540D01*
G37*
G36*
X03366008Y00800049D02*
G01X03435687D01*
G02X03435687Y00794969I00000000J-00002540D01*
G01X03366008D01*
G02X03366008Y00800049I00000000J00002540D01*
G37*
G36*
X03185160Y00950036D02*
G01X03206750D01*
G02X03206750Y00944956I00000000J-00002540D01*
G01X03185160D01*
G02X03185160Y00950036I00000000J00002540D01*
G37*
G36*
X03278505D02*
G01X03449430D01*
G02X03449430Y00944956I00000000J-00002540D01*
G01X03278505D01*
G02X03278505Y00950036I00000000J00002540D01*
G37*
%LNg2.gbr*%
%LPD*%
%SRX1Y1I0J0*%
G01*
G75*
M02*
