*
%FSLAX35Y35*%
%MOMM*%
G04 A1 - rect2499.36x1501.14xr375.92 *
%AMA1gbl*
22,1,2.499360,0.749300,-1.249680,-0.374650,0.0*
1,1,0.751840,-0.873760,0.374650*
1,1,0.751840,0.873760,0.374650*
20,1,0.751840,-0.873760,0.374650,0.873760,0.374650,0.0*
1,1,0.751840,-0.873760,-0.374650*
1,1,0.751840,0.873760,-0.374650*
20,1,0.751840,-0.873760,-0.374650,0.873760,-0.374650,0.0*
%
%ADD10O,1.050035X1.249935*%
%ADD11O,1.100075X1.800097*%
%ADD12C,1.000000*%
%ADD13C,0.400050*%
%ADD14C,0.659892*%
%ADD15A1gbl*%
%ADD16C,0.299975*%
%ADD17C,0.151892*%
%ADD18C,0.152400*%
%ADD19C,1.050000*%
%ADD20C,0.200000*%
%IPPOS*%
%LNgbl.gbr.sub1*%
%LPD*%
%SRX2Y7I33.00000J14.10000*%
G01*
G75*
G54D10*
X02392629Y00517499D03*
X01907616D03*
G54D11*
X02470125Y00227508D03*
X01830121D03*
G54D12*
X01112622Y00257505D03*
X00867639Y00345008D03*
X01482623Y00377495D03*
X01247623Y01040003D03*
X02560117Y00575005D03*
X03560115Y00615010D03*
X01967637Y00845007D03*
X02220112Y00750011D03*
X03542614Y00332512D03*
X01435126Y00140005D03*
X03157627Y00632511D03*
X02992628Y00729996D03*
X02702636Y00772490D03*
X00967638Y00832510D03*
X01025119Y00532511D03*
X00767614Y00157506D03*
X01047623Y01067511D03*
X01882622Y01047496D03*
X02232635Y00580009D03*
X02790139Y00610007D03*
G54D13*
X01615186Y01062558D03*
X02282724Y00807542D03*
X01739926Y00621310D03*
X01732636Y00394995D03*
X01837639Y00584988D03*
X01739926Y00701904D03*
Y00754609D03*
X01737436Y00807313D03*
X01732636Y00859993D03*
X01940128Y00752500D03*
X01957705Y00600024D03*
X03242615Y00947496D03*
X02800249Y00745033D03*
X01990116Y00985012D03*
X01510182Y01137564D03*
X01382624Y01075004D03*
X01438681Y01071499D03*
X01320165Y01087552D03*
X02612619Y00362509D03*
X03455136Y01115009D03*
X03402635Y01077494D03*
X03480130Y00929995D03*
X03647618Y00805002D03*
X02278863Y00406248D03*
X02727630Y00529996D03*
X03281375Y00563753D03*
X02972613Y01152500D03*
X03062097Y01080719D03*
X03262630Y00484988D03*
X03465119Y00712495D03*
X03330118Y00797509D03*
X03407765Y00777545D03*
X02627630Y00710006D03*
X03107614Y00827507D03*
X02667737Y01132561D03*
X02592629Y00902488D03*
X02590140Y00847497D03*
X01132662Y01077544D03*
X03092628Y00362509D03*
X03135122Y00319989D03*
X03177616Y00362509D03*
X03092628Y00277495D03*
X02900248Y00310007D03*
X03352774Y00445033D03*
X03470123Y00805002D03*
X03040126Y00875005D03*
X03035656Y00943026D03*
X02940126Y00092507D03*
X03472637Y00545008D03*
X03267634Y00880008D03*
Y00780009D03*
X03462630Y00462508D03*
X03325267Y00205003D03*
X03330118Y00087503D03*
X03715131Y00350012D03*
X02955112Y00605003D03*
X03135122Y00542493D03*
X03707612Y00605003D03*
X03707638Y00787502D03*
X02385136Y00729996D03*
X02997632Y00127508D03*
X02577618D03*
X03467634Y00087503D03*
X03715131Y00257505D03*
X03043149Y01028014D03*
X02596718Y01046480D03*
X02307616Y01019988D03*
X01662684Y01030046D03*
X01187653Y01072540D03*
X00865124Y00480009D03*
X01047623Y00352501D03*
X00820140Y00272516D03*
X01255116Y00329997D03*
X01113917Y00342494D03*
X01187628Y00327508D03*
X01085114Y00394995D03*
X00570129Y00085014D03*
X01217651Y00102515D03*
X01157631Y00107493D03*
X01337615Y00335001D03*
X00887628Y00956666D03*
Y00870001D03*
Y01043331D03*
Y01129995D03*
X01280135Y00105004D03*
X01660118D03*
X00952627Y01050011D03*
X01062635Y00972490D03*
X01011784Y00893191D03*
X03177616Y00277495D03*
X01641424Y00401295D03*
G54D14*
X01186561Y00883793D03*
X01306551D03*
X01426566D03*
X01546555D03*
X01186561Y00763804D03*
X01306551D03*
X01426566D03*
X01546555D03*
X01186561Y00643788D03*
X01306551D03*
X01426566D03*
X01546555D03*
X01186561Y00523799D03*
X01306551D03*
X01426566D03*
X01546555D03*
G54D15*
X03625114Y01085012D03*
X03237636D03*
X02747619Y00127508D03*
X03155137D03*
G54D16*
X02605126Y00529996D02*
X02727630D01*
X02560117Y00575005D02*
X02605126Y00529996D01*
X02250135Y00597510D02*
X02260092Y00587527D01*
X03455136Y01115009D02*
X03575126D01*
X03615131Y01075004D01*
X03335121Y01077494D02*
X03402635D01*
X03282620Y01129995D02*
X03335121Y01077494D01*
X03647618Y00580034D02*
Y00805002D01*
X03464916Y00397332D02*
X03647618Y00580034D01*
X03464916Y00242291D02*
Y00397332D01*
X03155137Y00135204D02*
X03357829D01*
X03464916Y00242291D01*
X03155137Y00127508D02*
Y00135204D01*
X02997632Y00127508D02*
X03155137D01*
X02577618D02*
X02747619D01*
X00767614Y00157506D02*
X00820140Y00210007D01*
Y00272516D01*
G54D17*
X01155116Y00967512D02*
X01590116D01*
X01132662Y00989965D02*
X01155116Y00967512D01*
X01132662Y00989965D02*
Y01077544D01*
X01630121Y00689991D02*
Y00927507D01*
X01590116Y00967512D02*
X01630121Y00927507D01*
X01658519Y00661594D02*
X01756613D01*
X01630121Y00689991D02*
X01658519Y00661594D01*
X02449449Y00431292D02*
X02506066Y00487909D01*
X02413889Y00431292D02*
X02449449D01*
X02506066Y00487909D02*
X03163036D01*
X02504389Y00651764D02*
X02562632Y00710006D01*
X02179422Y00651764D02*
X02504389D01*
X02179117Y00652069D02*
X02179422Y00651764D01*
X02147214Y00652069D02*
X02179117D01*
X02095145Y00600024D02*
X02147214Y00652069D01*
X01957705Y00600024D02*
X02095145D01*
X01756613Y00661594D02*
X01785138Y00633095D01*
Y00450012D02*
Y00633095D01*
Y00450012D02*
X01807617Y00427508D01*
X01890167D01*
X03362630Y00729996D02*
X03407765Y00775132D01*
X02992628Y00729996D02*
X03362630D01*
X02912618D02*
X02992628D01*
X02880132Y00697509D02*
X02912618Y00729996D01*
X02640127Y00697509D02*
X02880132D01*
X02627630Y00710006D02*
X02640127Y00697509D01*
X02232635Y00452501D02*
X02278863Y00406248D01*
X02232635Y00452501D02*
Y00580009D01*
X02348535Y00365963D02*
X02413889Y00431292D01*
X01951710Y00365963D02*
X02348535D01*
X01890167Y00427508D02*
X01951710Y00365963D01*
X03330118Y00087503D02*
X03372637D01*
X03542614Y00257505D02*
Y00332512D01*
X03372637Y00087503D02*
X03542614Y00257505D01*
X02562632Y00710006D02*
X02627630D01*
X03238881Y00563753D02*
X03281375D01*
X03163036Y00487909D02*
X03238881Y00563753D01*
X03422320Y00494691D02*
X03472637Y00545008D01*
X03422320Y00407060D02*
Y00494691D01*
X03407765Y00775132D02*
Y00777545D01*
X02900248Y00229870D02*
Y00310007D01*
Y00229870D02*
X02940126Y00189992D01*
X03325267Y00310007D02*
X03422320Y00407060D01*
X03325267Y00194996D02*
Y00310007D01*
X03135122Y00610007D02*
X03157627Y00632511D01*
X03135122Y00542493D02*
Y00610007D01*
X02940126Y00092507D02*
Y00189992D01*
X01215085Y01072540D02*
X01247623Y01040003D01*
X01187653Y01072540D02*
X01215085D01*
X01112622Y00257505D02*
X01182624Y00327508D01*
X01187628D01*
X01440129Y00335001D02*
X01482623Y00377495D01*
X01337615Y00335001D02*
X01440129D01*
G54D18*
X01438681Y01071499D02*
X01554124D01*
X01602638Y01119987D01*
X02610129D01*
X02538171Y00944575D02*
X02576932Y00983336D01*
X01720672Y00944575D02*
X02538171D01*
X02576932Y00983336D02*
X02702636D01*
Y00772490D02*
Y00983336D01*
X02540457Y00402818D02*
X03375457D01*
X02485136Y00347497D02*
X02540457Y00402818D01*
X02448611Y00347497D02*
X02485136D01*
X02472589Y00375438D02*
X02529205Y00432054D01*
X02437029Y00375438D02*
X02472589D01*
X02461006Y00403377D02*
X02517623Y00459994D01*
X02425472Y00403377D02*
X02461006D01*
X02529205Y00432054D02*
X03266720D01*
X02517623Y00459994D02*
X03237636D01*
X01907616Y00785013D02*
X01940128Y00752500D01*
X01907616Y00785013D02*
X01967637Y00845007D01*
X02167636Y00802488D02*
X02212975Y00847852D01*
X02077314Y00712191D02*
X02167636Y00802488D01*
X02220112Y00750011D01*
X02334819Y00679678D02*
X02385136Y00729996D01*
X02212975Y00847852D02*
X02589759D01*
X02590140Y00847497D01*
X02191004Y00679678D02*
X02334819D01*
X02190674Y00680009D02*
X02191004Y00679678D01*
X01900606Y00680009D02*
X02190674D01*
X01826006Y00754609D02*
X01900606Y00680009D01*
X01739926Y00754609D02*
X01826006D01*
X01739926Y00455727D02*
Y00621310D01*
Y00455727D02*
X01801952Y00393700D01*
X01884477D01*
X01732636Y00394995D02*
X01761871Y00365760D01*
X01735607Y00701904D02*
X01739926D01*
X01733093Y00754609D02*
X01739926D01*
X01737436Y00807313D02*
X01812823D01*
X01732636Y00859993D02*
X01832636D01*
X01664360Y00888263D02*
X01720672Y00944575D01*
X01640129Y00977493D02*
X01882622D01*
X01812823Y00807313D02*
X01907947Y00712191D01*
X02077314D01*
X01940128Y00752500D02*
X02020113D01*
X01832636Y00859993D02*
X01907616Y00785013D01*
X01950593Y00845007D02*
X01967637D01*
X02155571Y00887933D02*
X02578075D01*
X02020113Y00752500D02*
X02155571Y00887933D01*
X03088183Y00947496D02*
X03242615D01*
X03052344Y00983336D02*
X03088183Y00947496D01*
X01882622Y00977493D02*
X01932635D01*
X01940128Y00985012D01*
X01990116D01*
X01982623Y00977493D02*
X01990116Y00985012D01*
X01612620Y01005002D02*
X01640129Y00977493D01*
X01448155Y01005002D02*
X01612620D01*
X01382624Y01070534D02*
X01448155Y01005002D01*
X01382624Y01070534D02*
Y01075004D01*
X01882622Y00977493D02*
Y01047496D01*
X01438681Y01063651D02*
X01441323Y01066292D01*
X01438681Y01063651D02*
Y01071499D01*
X02578075Y00887933D02*
X02592629Y00902488D01*
X02360117Y00338023D02*
X02425472Y00403377D01*
X02371674Y00310083D02*
X02437029Y00375438D01*
X02383257Y00282143D02*
X02448611Y00347497D01*
X01707947Y00337820D02*
X01861337D01*
X01510132Y00140005D02*
X01707947Y00337820D01*
X01861337D02*
X01916989Y00282143D01*
X01872895Y00365760D02*
X01928571Y00310083D01*
X01884477Y00393700D02*
X01940154Y00338023D01*
X02360117D01*
X01928571Y00310083D02*
X02371674D01*
X01916989Y00282143D02*
X02383257D01*
X01761871Y00365760D02*
X01872895D01*
X02702636Y00983336D02*
X03052344D01*
X02649398Y01080719D02*
X03062097D01*
X02610129Y01119987D02*
X02649398Y01080719D01*
X01435126Y00140005D02*
X01510132D01*
X03393085Y00420472D02*
Y00697484D01*
X03375457Y00402818D02*
X03393085Y00420472D01*
X03266720Y00432054D02*
X03279674Y00445033D01*
X03237636Y00459994D02*
X03262630Y00484988D01*
X03393085Y00697484D02*
X03470123Y00774522D01*
Y00805002D01*
X03486836Y00845312D02*
X03560115Y00772033D01*
Y00615010D02*
Y00772033D01*
X03320923Y00845312D02*
X03486836D01*
X03267634Y00792023D02*
X03320923Y00845312D01*
X03267634Y00780009D02*
Y00792023D01*
X03560115Y00559994D02*
Y00615010D01*
X03462630Y00462508D02*
X03560115Y00559994D01*
X03279674Y00445033D02*
X03352774D01*
X01664360Y00773150D02*
Y00888263D01*
Y00773150D02*
X01735607Y00701904D01*
X00867639Y00345008D02*
X00950138Y00427508D01*
X01367638Y00140005D02*
X01435126D01*
X01255116Y00252501D02*
X01367638Y00140005D01*
X01255116Y00252501D02*
Y00329997D01*
X01052627Y00427508D02*
X01085114Y00394995D01*
X00950138Y00427508D02*
X01052627D01*
X00967638Y00832510D02*
X01011784Y00876655D01*
Y00893191D01*
X00952627Y01050011D02*
X01030122D01*
X01047623Y01067511D01*
X01062635Y00667512D02*
Y00972490D01*
X01025119Y00629996D02*
X01062635Y00667512D01*
X01025119Y00532511D02*
Y00629996D01*
%LNgbl.gbr*%
%LPD*%
%SRX1Y1I0J0*%
G01*
G75*
G54D19*
X00250127Y01000001D03*
X07350062Y02100001D03*
X00250127Y08670034D03*
X07350062D03*
G54D20*
X00380126Y01000001D02*
X00378874Y00982005D01*
X00375145Y00964357D01*
X00369006Y00947395D01*
X00360581Y00931446D01*
X00350030Y00916818D01*
X00337553Y00903790D01*
X00323393Y00892615D01*
X00307825Y00883506D01*
X00291145Y00876640D01*
X00273672Y00872150D01*
X00255750Y00870123D01*
X00237719Y00870592D01*
X00219926Y00873557D01*
X00202712Y00878954D01*
X00186416Y00886683D01*
X00171343Y00896592D01*
X00157787Y00908492D01*
X00146009Y00922154D01*
X00136238Y00937316D01*
X00128656Y00953684D01*
X00123414Y00970943D01*
X00120612Y00988764D01*
X00120304Y01006797D01*
X00122494Y01024702D01*
X00127142Y01042132D01*
X00134158Y01058751D01*
X00143406Y01074237D01*
X00154709Y01088293D01*
X00167851Y01100651D01*
X00182575Y01111072D01*
X00198597Y01119353D01*
X00215615Y01125337D01*
X00233297Y01128906D01*
X00251302Y01129995D01*
X00269286Y01128581D01*
X00286898Y01124692D01*
X00303804Y01118400D01*
X00319677Y01109830D01*
X00334208Y01099147D01*
X00347124Y01086554D01*
X00358170Y01072294D01*
X00367137Y01056643D01*
X00373852Y01039899D01*
X00378183Y01022391D01*
X00380050Y01004448D01*
X00380126Y01000001D01*
X07480061Y02100001D02*
X07478811Y02082005D01*
X07475080Y02064357D01*
X07468944Y02047395D01*
X07460518Y02031446D01*
X07449965Y02016816D01*
X07437488Y02003788D01*
X07423330Y01992615D01*
X07407760Y01983506D01*
X07391080Y01976641D01*
X07373610Y01972150D01*
X07355685Y01970120D01*
X07337654Y01970593D01*
X07319861Y01973557D01*
X07302650Y01978955D01*
X07286351Y01986681D01*
X07271278Y01996592D01*
X07257722Y02008492D01*
X07245947Y02022155D01*
X07236173Y02037316D01*
X07228593Y02053684D01*
X07223351Y02070943D01*
X07220550Y02088764D01*
X07220240Y02106798D01*
X07222431Y02124702D01*
X07227077Y02142132D01*
X07234095Y02158748D01*
X07243344Y02174238D01*
X07254647Y02188294D01*
X07267786Y02200651D01*
X07282510Y02211070D01*
X07298535Y02219353D01*
X07315551Y02225335D01*
X07333234Y02228906D01*
X07351237Y02229995D01*
X07369221Y02228581D01*
X07386833Y02224692D01*
X07403739Y02218401D01*
X07419612Y02209831D01*
X07434146Y02199147D01*
X07447059Y02186554D01*
X07458108Y02172294D01*
X07467074Y02156643D01*
X07473788Y02139899D01*
X07478118Y02122391D01*
X07479985Y02104449D01*
X07480061Y02100001D01*
X00380126Y08670034D02*
X00378874Y08652040D01*
X00375145Y08634392D01*
X00369006Y08617430D01*
X00360581Y08601482D01*
X00350030Y08586851D01*
X00337553Y08573823D01*
X00323393Y08562647D01*
X00307825Y08553539D01*
X00291145Y08546673D01*
X00273672Y08542185D01*
X00255750Y08540156D01*
X00237719Y08540628D01*
X00219926Y08543590D01*
X00202712Y08548987D01*
X00186416Y08556717D01*
X00171343Y08566628D01*
X00157787Y08578528D01*
X00146009Y08592190D01*
X00136238Y08607351D01*
X00128656Y08623719D01*
X00123414Y08640978D01*
X00120612Y08658797D01*
X00120304Y08676833D01*
X00122494Y08694738D01*
X00127142Y08712167D01*
X00134158Y08728784D01*
X00143406Y08744270D01*
X00154709Y08758329D01*
X00167851Y08770686D01*
X00182575Y08781105D01*
X00198597Y08789386D01*
X00215615Y08795370D01*
X00233297Y08798941D01*
X00251302Y08800028D01*
X00269286Y08798613D01*
X00286898Y08794725D01*
X00303804Y08788436D01*
X00319677Y08779866D01*
X00334208Y08769180D01*
X00347124Y08756586D01*
X00358170Y08742327D01*
X00367137Y08726675D01*
X00373852Y08709934D01*
X00378183Y08692424D01*
X00380050Y08674484D01*
X00380126Y08670034D01*
X07480061D02*
X07478811Y08652040D01*
X07475080Y08634392D01*
X07468944Y08617430D01*
X07460518Y08601482D01*
X07449965Y08586851D01*
X07437488Y08573823D01*
X07423330Y08562647D01*
X07407760Y08553539D01*
X07391080Y08546673D01*
X07373610Y08542185D01*
X07355685Y08540156D01*
X07337654Y08540628D01*
X07319861Y08543590D01*
X07302650Y08548987D01*
X07286351Y08556717D01*
X07271278Y08566628D01*
X07257722Y08578528D01*
X07245947Y08592190D01*
X07236173Y08607351D01*
X07228593Y08623719D01*
X07223351Y08640978D01*
X07220550Y08658797D01*
X07220240Y08676833D01*
X07222431Y08694738D01*
X07227077Y08712167D01*
X07234095Y08728784D01*
X07243344Y08744270D01*
X07254647Y08758329D01*
X07267786Y08770686D01*
X07282510Y08781105D01*
X07298535Y08789386D01*
X07315551Y08795370D01*
X07333234Y08798941D01*
X07351237Y08800028D01*
X07369221Y08798613D01*
X07386833Y08794725D01*
X07403739Y08788436D01*
X07419612Y08779866D01*
X07434146Y08769180D01*
X07447059Y08756586D01*
X07458108Y08742327D01*
X07467074Y08726675D01*
X07473788Y08709934D01*
X07478118Y08692424D01*
X07479985Y08674484D01*
X07480061Y08670034D01*
M02*
