*
%FSLAX35Y35*%
%MOMM*%
%ADD10R,0.852425X0.652525*%
%ADD11R,0.552450X1.502410*%
%ADD12R,1.552448X0.902462*%
%ADD13R,1.102360X1.002537*%
%ADD14R,1.552448X1.552448*%
%ADD15R,0.752347X0.652525*%
%ADD16R,0.652525X0.752347*%
%ADD17R,0.652525X0.852425*%
%ADD18R,0.802385X0.652525*%
%ADD19R,0.402335X0.552450*%
%ADD20R,0.852425X0.552450*%
%ADD21R,0.952500X0.902462*%
%ADD22R,0.652525X0.802385*%
%ADD23R,0.812292X0.452375*%
%ADD24R,1.102360X1.052323*%
%ADD25R,0.582423X0.352297*%
%ADD26R,0.562355X0.702310*%
%ADD27R,0.777500X0.402335*%
%ADD28R,4.852415X4.852415*%
%ADD29O,0.352297X0.802385*%
%ADD30O,0.802385X0.352297*%
%ADD31R,0.432308X1.002537*%
%ADD32O,0.432308X1.002537*%
%ADD33O,1.002537X0.432308*%
%ADD34R,1.852422X1.852422*%
%ADD35O,0.402335X0.902462*%
%ADD36O,0.902462X0.402335*%
%ADD37R,1.852422X3.852417*%
%ADD38O,1.202435X1.402335*%
%ADD39O,1.252475X1.952500*%
%ADD40C,1.152398*%
%ADD41C,0.552450*%
%ADD42C,0.812292*%
%ADD43C,0.080000*%
%ADD44C,2.200000*%
%ADD45C,1.950000*%
%IPPOS*%
%LNgts.gbr.sub1*%
%LPD*%
%SRX2Y7I33.00000J14.10000*%
G01*
G75*
G36*
X01970126Y00592506D02*
Y00782498D01*
X02047621D01*
Y00592506D01*
X01970126D01*
G37*
G36*
X02252625D02*
Y00782498D01*
X02330120D01*
Y00592506D01*
X02252625D01*
G37*
G36*
X02062480Y00607492D02*
Y00767512D01*
X02062582Y00768706D01*
X02062861Y00769874D01*
X02063318Y00770966D01*
X02063953Y00771982D01*
X02064715Y00772897D01*
X02065630Y00773684D01*
X02066646Y00774319D01*
X02067763Y00774776D01*
X02068932Y00775055D01*
X02070126Y00775157D01*
X02230120D01*
X02231314Y00775055D01*
X02232482Y00774776D01*
X02233600Y00774319D01*
X02234616Y00773684D01*
X02235530Y00772897D01*
X02236318Y00771982D01*
X02236927Y00770966D01*
X02237410Y00769874D01*
X02237664Y00768706D01*
X02237765Y00767512D01*
Y00607492D01*
X02237664Y00606298D01*
X02237410Y00605130D01*
X02236927Y00604038D01*
X02236318Y00602996D01*
X02235530Y00602107D01*
X02234616Y00601320D01*
X02233600Y00600684D01*
X02232482Y00600228D01*
X02231314Y00599948D01*
X02230120Y00599847D01*
X02070126D01*
X02068932Y00599948D01*
X02067763Y00600228D01*
X02066646Y00600684D01*
X02065630Y00601320D01*
X02064715Y00602107D01*
X02063953Y00602996D01*
X02063318Y00604038D01*
X02062861Y00605130D01*
X02062582Y00606298D01*
X02062480Y00607492D01*
G37*
G54D10*
X03280131Y00635000D03*
Y00710006D03*
X02685136Y00177495D03*
Y00102489D03*
X03522625Y01015009D03*
Y01089990D03*
X03625114Y01032510D03*
Y00957504D03*
G54D11*
X02020113Y00494995D03*
X02085137D03*
X02150136D03*
X02215134D03*
X02280133D03*
G54D12*
X02620137Y00635000D03*
Y00489992D03*
G54D13*
X01000125Y00207493D03*
Y00092507D03*
X00855117D03*
Y00207493D03*
G54D14*
X00692632Y00254991D03*
Y00954989D03*
G54D15*
X00730123Y00085014D03*
X00630123D03*
X00952627Y01124992D03*
X01052627D03*
X03150134Y01145007D03*
X03050134D03*
X01117626Y00297510D03*
X01017625D03*
X01345133Y01137488D03*
X01445133D03*
X02705125Y00402489D03*
X02805125D03*
X03367634Y00859993D03*
X03467634D03*
X03557626Y00857504D03*
X03657625D03*
X01250137Y01134999D03*
X01150138D03*
X02470125Y00729996D03*
X02570125D03*
G54D16*
X03725139Y00940003D03*
Y01040003D03*
X00954075Y00850011D03*
Y00950011D03*
X01712620Y01129995D03*
Y01029995D03*
X03715131Y00187503D03*
Y00087503D03*
X03150134Y01070001D03*
Y00970000D03*
X00935127Y00640004D03*
Y00540004D03*
X01110133Y00207493D03*
Y00107493D03*
X03000121Y00605003D03*
Y00705002D03*
X03370123Y00712495D03*
Y00612496D03*
X01660118Y00162662D03*
Y00262661D03*
X01280770Y00162662D03*
Y00262661D03*
X03521786Y00087503D03*
Y00187503D03*
X03608476Y00187478D03*
Y00087478D03*
X03402635Y00087503D03*
Y00187503D03*
X01797634Y00737489D03*
Y00637489D03*
X01867636Y00737489D03*
Y00637489D03*
X03300121Y01057504D03*
Y00957504D03*
X02777617Y00092507D03*
Y00192506D03*
X03087650Y00704977D03*
Y00604977D03*
X02862631Y00094996D03*
Y00194996D03*
X00865124Y00540004D03*
Y00640004D03*
X03175127Y00704977D03*
Y00604977D03*
X01202614Y00162509D03*
Y00262509D03*
G54D17*
X01632636Y01132510D03*
X01557629D03*
G54D18*
X02802636Y00300000D03*
X02707614D03*
X00861568Y00724992D03*
X00956564D03*
G54D19*
X03372637Y00942493D03*
X03417621D03*
G54D20*
X03395116Y01012495D03*
G54D21*
X01566977Y00117653D03*
Y00252654D03*
X01455775D03*
Y00117653D03*
G54D22*
X01359484Y00165151D03*
Y00260147D03*
G54D23*
X03644621Y00284988D03*
Y00350012D03*
Y00415011D03*
X03460623Y00284988D03*
Y00350012D03*
Y00415011D03*
G54D24*
X03472637Y00622503D03*
X03707638Y00527507D03*
Y00717499D03*
G54D25*
X03266135Y00810006D03*
Y00845007D03*
G54D26*
X03198114Y00827507D03*
G54D27*
X02008860Y00612496D03*
Y00662508D03*
Y00712495D03*
Y00762508D03*
X02291385D03*
Y00712495D03*
Y00662508D03*
Y00612496D03*
G54D28*
X01366571Y00703809D03*
G54D29*
X01586560Y00401295D03*
X01546555D03*
X01506550D03*
X01466571D03*
X01426566D03*
X01386560D03*
X01346556D03*
X01306551D03*
X01266571D03*
X01226566D03*
X01186561D03*
X01146556D03*
Y01006297D03*
X01186561D03*
X01226566D03*
X01266571D03*
X01306551D03*
X01346556D03*
X01386560D03*
X01426566D03*
X01466571D03*
X01506550D03*
X01546555D03*
X01586560D03*
G54D30*
X01064057Y00483794D03*
Y00523799D03*
Y00563804D03*
Y00603809D03*
Y00643788D03*
Y00683794D03*
Y00723799D03*
Y00763804D03*
Y00803808D03*
Y00843788D03*
Y00883793D03*
Y00923798D03*
X01669059D03*
Y00883793D03*
Y00843788D03*
Y00803808D03*
Y00763804D03*
Y00723799D03*
Y00683794D03*
Y00643788D03*
Y00603809D03*
Y00563804D03*
Y00523799D03*
Y00483794D03*
G54D31*
X03060116Y00170002D03*
G54D32*
X03110129D03*
X03160116D03*
X03210128D03*
Y00464998D03*
X03160116D03*
X03110129D03*
X03060116D03*
G54D33*
X03282620Y00242494D03*
Y00292506D03*
Y00342494D03*
Y00392506D03*
X02987624D03*
Y00342494D03*
Y00292506D03*
Y00242494D03*
G54D34*
X03135122Y00319989D03*
G54D35*
X02716581Y00815518D03*
X02756586D03*
X02796591D03*
X02836596D03*
X02876575D03*
X02916581D03*
Y01120521D03*
X02876575D03*
X02836596D03*
X02796591D03*
X02756586D03*
X02716581D03*
G54D36*
X02969082Y00868020D03*
Y00908025D03*
Y00948030D03*
Y00988034D03*
Y01028014D03*
Y01068019D03*
X02664079D03*
Y01028014D03*
Y00988034D03*
Y00948030D03*
Y00908025D03*
Y00868020D03*
G54D37*
X02445131Y00999998D03*
X01855140D03*
G54D38*
X02392629Y00517499D03*
X01907616D03*
G54D39*
X02470125Y00227508D03*
X01830121D03*
G54D40*
X02790139Y00610007D03*
G54D41*
X03092628Y00362509D03*
X03135122Y00319989D03*
X03177616Y00362509D03*
X03092628Y00277495D03*
X03177616D03*
G54D42*
X01186561Y00883793D03*
X01306551D03*
X01426566D03*
X01546555D03*
X01186561Y00763804D03*
X01306551D03*
X01426566D03*
X01546555D03*
X01186561Y00643788D03*
X01306551D03*
X01426566D03*
X01546555D03*
X01186561Y00523799D03*
X01306551D03*
X01426566D03*
X01546555D03*
G54D16*
X01821048Y00737489D03*
X01836475Y00637489D03*
G54D29*
X01567201Y00401295D03*
X01527196D03*
X01487216D03*
X01447211D03*
X01407206D03*
X01367201D03*
X01327196D03*
X01287217D03*
X01247211D03*
X01207207D03*
X01167202D03*
Y01006297D03*
X01207207D03*
X01247211D03*
X01287217D03*
X01327196D03*
X01367201D03*
X01407206D03*
X01447211D03*
X01487216D03*
X01527196D03*
X01567201D03*
G54D30*
X01064057Y00502283D03*
Y00542288D03*
Y00582293D03*
Y00622273D03*
Y00662277D03*
Y00702283D03*
Y00742288D03*
Y00782293D03*
Y00822272D03*
Y00862277D03*
Y00902282D03*
X01669059D03*
Y00862277D03*
Y00822272D03*
Y00782293D03*
Y00742288D03*
Y00702283D03*
Y00662277D03*
Y00622273D03*
Y00582293D03*
Y00542288D03*
Y00502283D03*
G54D16*
X03150134Y01085877D03*
G54D19*
X03384698Y00942493D03*
G54D33*
X03011257Y00392506D03*
Y00342494D03*
Y00292506D03*
Y00242494D03*
X03260376D03*
Y00292506D03*
Y00342494D03*
Y00392506D03*
G54D32*
X03210128Y00441167D03*
X03160116D03*
X03110129D03*
X03060116D03*
%LPC*%
G75*
X03060116Y00441167D02*
G54D43*
X03090821Y00219096D02*
X03086122Y00223395D01*
X03037635Y00223794D01*
X03020739Y00214397D01*
X03196234Y00223418D02*
X03218690Y00223500D01*
X03237035Y00212806D01*
%LPD*%
G75*
X03237035Y00212806D02*
G54D16*
X00923082Y00540004D03*
X00919382Y00640004D03*
%LNgts.gbr*%
%LPD*%
%SRX1Y1I0J0*%
G01*
G75*
G54D44*
X00250127Y00499999D03*
Y09170035D03*
X07350062Y01599999D03*
Y09170035D03*
G54D45*
X00250127Y01000001D03*
X07350062Y02100001D03*
X00250127Y08670034D03*
X07350062D03*
%LPC*%
G01*
G75*
X07350062Y08670034D02*
%LPD*%
G01*
G75*
X07350062Y08670034D02*
M02*
