G04 Layer_Physical_Order=1*
G04 Layer_Color=255*
%FSLAX25Y25*%
%MOIN*%
G70*
G01*
G75*
%ADD10C,0.01181*%
%ADD11R,0.00984X0.01575*%
%ADD12R,0.02756X0.01575*%
%ADD13R,0.06693X0.14567*%
%ADD14O,0.02953X0.00984*%
%ADD15O,0.00984X0.02953*%
%ADD16R,0.02756X0.01969*%
%ADD17R,0.06693X0.06693*%
%ADD18O,0.03347X0.01102*%
%ADD19O,0.01102X0.03347*%
%ADD20R,0.01102X0.03347*%
%ADD21O,0.02559X0.00787*%
%ADD22O,0.00787X0.02559*%
%ADD23R,0.18504X0.18504*%
%ADD24R,0.02461X0.00984*%
%ADD25R,0.02362X0.01969*%
%ADD26R,0.01969X0.02362*%
%ADD27R,0.01614X0.02165*%
%ADD28R,0.01693X0.00787*%
%ADD29R,0.03740X0.03543*%
%ADD30R,0.03740X0.03543*%
%ADD31R,0.02598X0.01181*%
%ADD32R,0.03150X0.02953*%
%ADD33R,0.01969X0.02559*%
%ADD34R,0.02559X0.01969*%
%ADD35R,0.01969X0.02756*%
%ADD36R,0.05512X0.05512*%
%ADD37R,0.03740X0.03347*%
%ADD38R,0.05512X0.02953*%
%ADD39R,0.01575X0.05315*%
%ADD40C,0.00984*%
%ADD41C,0.00598*%
%ADD42C,0.00600*%
%ADD43C,0.00787*%
%ADD44C,0.00800*%
%ADD45C,0.01000*%
%ADD46C,0.01969*%
%ADD47C,0.01575*%
%ADD48C,0.03937*%
%ADD49O,0.04331X0.07087*%
%ADD50O,0.04134X0.04921*%
%ADD51C,0.01575*%
%ADD52C,0.02598*%
G36*
X17161Y46469D02*
X17160Y45776D01*
X16134D01*
Y42807D01*
X16608D01*
X16686Y42726D01*
X16887Y42267D01*
X16602Y41841D01*
X16502Y41339D01*
X16602Y40836D01*
X16887Y40410D01*
X17152Y40233D01*
X17151Y39583D01*
X15888D01*
Y37902D01*
X17872D01*
Y36902D01*
X15888D01*
Y35221D01*
X15919D01*
X16388Y35146D01*
Y31784D01*
X16858D01*
Y30709D01*
X12992Y30709D01*
X12992Y46823D01*
X16808D01*
X17161Y46469D01*
D02*
G37*
G36*
X68110Y23917D02*
X61811D01*
Y30217D01*
X68110D01*
Y23917D01*
D02*
G37*
G36*
X105315Y16634D02*
X102165D01*
Y20079D01*
X105315D01*
Y16634D01*
D02*
G37*
G36*
Y4921D02*
X102165D01*
Y8366D01*
X105315D01*
Y4921D01*
D02*
G37*
D10*
X14370Y25197D02*
G03*
X14272Y25295I-98J0D01*
G01*
X12500Y28543D02*
G03*
X11614Y27657I0J-886D01*
G01*
X14370Y28403D02*
G03*
X14230Y28543I-140J0D01*
G01*
X8957Y11417D02*
G03*
X7579Y10039I0J-1378D01*
G01*
X10630Y12106D02*
G03*
X11614Y13091I0J984D01*
G01*
X42773Y15799D02*
X44933D01*
X42500Y4134D02*
X45669D01*
X92913Y3642D02*
X93012Y3740D01*
X38049Y15799D02*
Y23772D01*
X17970Y28543D02*
Y33465D01*
X45669Y4134D02*
X45669Y4134D01*
Y6404D01*
X30709Y4134D02*
X30734Y4159D01*
Y6404D01*
X14370Y21260D02*
X17126D01*
X42773Y10718D02*
Y15799D01*
X18017Y28496D02*
X22202D01*
X15518Y37402D02*
X17872D01*
X15256Y37664D02*
X15518Y37402D01*
X12500Y28543D02*
X14230D01*
X14370Y25197D02*
Y28403D01*
X11614Y13091D02*
Y27657D01*
X8957Y12106D02*
X10630D01*
X24016Y4232D02*
X25886D01*
X27657Y4628D02*
Y6398D01*
Y4628D02*
X28249Y4036D01*
X2756Y3347D02*
X5118D01*
X22202Y17871D02*
Y19047D01*
X24311Y11713D02*
Y13339D01*
X24165Y13484D02*
X24311Y13339D01*
X12795Y9350D02*
X13976Y8169D01*
X12795Y9350D02*
Y10533D01*
X12599Y10729D02*
X12795Y10533D01*
X20276Y4232D02*
X24016D01*
X19685Y3642D02*
X20276Y4232D01*
X19938Y12148D02*
X20374Y11713D01*
X19938Y15608D02*
X22202Y17871D01*
X19938Y13976D02*
X21457D01*
X21555Y13878D01*
X19938Y12148D02*
Y13976D01*
Y15608D01*
X14370Y18898D02*
Y21260D01*
Y18898D02*
X14370Y18898D01*
X44685Y44488D02*
X47736D01*
X45977Y40551D02*
X45977Y40551D01*
X46260D01*
X45977Y40551D02*
X46260D01*
X47736D01*
X46260Y40551D02*
X46260Y40551D01*
X46258Y40553D02*
X46260Y40551D01*
X45770Y40553D02*
X46258D01*
X82543Y40981D02*
Y41200D01*
X37303Y44479D02*
X37607Y44783D01*
X41683Y42118D02*
X42773Y41028D01*
X39673Y42118D02*
X41683D01*
X103740Y18504D02*
Y21358D01*
X112992Y24114D02*
X116634D01*
X117028Y21457D02*
Y24508D01*
X98327Y5020D02*
X99496Y3850D01*
X103654D01*
X103740Y3937D01*
X123031Y40650D02*
X126673D01*
X125787Y37008D02*
X126969D01*
X125000Y37795D02*
X125787Y37008D01*
X123130Y37795D02*
X125000D01*
X103740Y3937D02*
Y6693D01*
X83071Y3740D02*
X93012D01*
X81791Y5020D02*
X83071Y3740D01*
X37312Y44479D02*
X39673Y42118D01*
X102657Y32579D02*
X106220D01*
X112992Y28051D02*
X116732D01*
X109449Y27953D02*
X112894D01*
X70029Y15994D02*
X70079Y16043D01*
Y19488D01*
X123917Y31693D02*
Y33366D01*
X124311Y33760D01*
X125787D01*
X126969Y34941D01*
Y37008D01*
X118996Y42913D02*
X120768D01*
X123031Y40650D01*
X117323Y42913D02*
X118996D01*
X116339Y43898D02*
X117323Y42913D01*
X114272Y40157D02*
Y42421D01*
X113976Y39862D02*
X114272Y40157D01*
X113976Y39862D02*
X118898D01*
X37303Y44479D02*
X37312D01*
X32285Y42817D02*
X33268Y43800D01*
Y44783D01*
X47736Y44488D02*
X51378D01*
X39766Y44786D02*
X41435D01*
X41634Y44587D01*
X53347Y39370D02*
X53937Y38780D01*
X58366D01*
X52658Y23031D02*
Y24902D01*
X51083Y25098D02*
X53839D01*
X42773Y39618D02*
Y41001D01*
X43799Y42028D02*
X43900Y41927D01*
Y41833D02*
Y41927D01*
X42773Y41001D02*
Y41028D01*
Y41001D02*
X43799Y42028D01*
D11*
X113091Y37106D02*
D03*
X114862D02*
D03*
D12*
X113976Y39862D02*
D03*
D13*
X53347Y39370D02*
D03*
X76575D02*
D03*
D14*
X85195Y34174D02*
D03*
Y35749D02*
D03*
Y37324D02*
D03*
Y38899D02*
D03*
Y40473D02*
D03*
Y42048D02*
D03*
X97203D02*
D03*
Y40473D02*
D03*
Y38899D02*
D03*
Y37324D02*
D03*
Y35749D02*
D03*
Y34174D02*
D03*
D15*
X87262Y44115D02*
D03*
X88837D02*
D03*
X90412D02*
D03*
X91987D02*
D03*
X93561D02*
D03*
X95136D02*
D03*
Y32107D02*
D03*
X93561D02*
D03*
X91987D02*
D03*
X90412D02*
D03*
X88837D02*
D03*
X87262D02*
D03*
D16*
X123031Y37697D02*
D03*
Y40650D02*
D03*
X118996Y42913D02*
D03*
Y39961D02*
D03*
X86024Y4035D02*
D03*
Y6988D02*
D03*
X109449Y27953D02*
D03*
Y25000D02*
D03*
D17*
X103740Y12598D02*
D03*
D18*
X97933Y9547D02*
D03*
Y11516D02*
D03*
Y13484D02*
D03*
Y15453D02*
D03*
X109547D02*
D03*
Y13484D02*
D03*
Y11516D02*
D03*
Y9547D02*
D03*
D19*
X100787Y18307D02*
D03*
X102756D02*
D03*
X104724D02*
D03*
X106693D02*
D03*
Y6693D02*
D03*
X104724D02*
D03*
X102756D02*
D03*
D20*
X100787D02*
D03*
D21*
X46021Y19047D02*
D03*
Y20622D02*
D03*
Y22197D02*
D03*
Y23772D02*
D03*
Y25346D02*
D03*
Y26921D02*
D03*
Y28496D02*
D03*
Y30071D02*
D03*
Y31646D02*
D03*
Y33220D02*
D03*
Y34795D02*
D03*
Y36370D02*
D03*
X22202D02*
D03*
Y34795D02*
D03*
Y33220D02*
D03*
Y31646D02*
D03*
Y30071D02*
D03*
Y28496D02*
D03*
Y26921D02*
D03*
Y25346D02*
D03*
Y23772D02*
D03*
Y22197D02*
D03*
Y20622D02*
D03*
Y19047D02*
D03*
D22*
X42773Y39618D02*
D03*
X41198D02*
D03*
X39623D02*
D03*
X38049D02*
D03*
X36474D02*
D03*
X34899D02*
D03*
X33324D02*
D03*
X31749D02*
D03*
X30175D02*
D03*
X28600D02*
D03*
X27025D02*
D03*
X25450D02*
D03*
Y15799D02*
D03*
X27025D02*
D03*
X28600D02*
D03*
X30175D02*
D03*
X31749D02*
D03*
X33324D02*
D03*
X34899D02*
D03*
X36474D02*
D03*
X38049D02*
D03*
X39623D02*
D03*
X41198D02*
D03*
X42773D02*
D03*
D23*
X34112Y27709D02*
D03*
D24*
X70522Y24114D02*
D03*
Y26083D02*
D03*
Y28051D02*
D03*
Y30020D02*
D03*
X59399Y30020D02*
D03*
Y28051D02*
D03*
Y26083D02*
D03*
Y24114D02*
D03*
D25*
X81496Y28740D02*
D03*
X77559D02*
D03*
X25591Y44685D02*
D03*
X29528D02*
D03*
X124311Y33760D02*
D03*
X120374D02*
D03*
X116831Y33858D02*
D03*
X112894D02*
D03*
X90748Y15846D02*
D03*
X86811D02*
D03*
X37205Y44783D02*
D03*
X33268D02*
D03*
X20374Y11713D02*
D03*
X24311D02*
D03*
X100394Y45079D02*
D03*
X104331D02*
D03*
X21752Y44291D02*
D03*
X17815D02*
D03*
X5118Y3347D02*
D03*
X9055D02*
D03*
D26*
X27657Y10335D02*
D03*
Y6398D02*
D03*
X105315Y23818D02*
D03*
Y27755D02*
D03*
X14370Y25197D02*
D03*
Y21260D02*
D03*
X93012Y7677D02*
D03*
Y3740D02*
D03*
X101871Y23818D02*
D03*
Y27755D02*
D03*
X89665Y7579D02*
D03*
Y3642D02*
D03*
X110236Y37697D02*
D03*
Y41634D02*
D03*
X53839Y25098D02*
D03*
Y29035D02*
D03*
X51083Y25098D02*
D03*
Y29035D02*
D03*
X114272Y7382D02*
D03*
Y3445D02*
D03*
X122376Y3444D02*
D03*
Y7381D02*
D03*
X118963Y7382D02*
D03*
Y3445D02*
D03*
X30734Y10341D02*
D03*
Y6404D02*
D03*
X45669Y10341D02*
D03*
Y6404D02*
D03*
X112992Y24114D02*
D03*
Y28051D02*
D03*
X98425Y27756D02*
D03*
Y23819D02*
D03*
X24016Y4232D02*
D03*
Y8169D02*
D03*
X17126Y21260D02*
D03*
Y25197D02*
D03*
X104331Y38189D02*
D03*
Y42126D02*
D03*
X126575Y3445D02*
D03*
Y7382D02*
D03*
X47736Y40551D02*
D03*
Y44488D02*
D03*
X17872Y37402D02*
D03*
Y33465D02*
D03*
X126969Y40945D02*
D03*
Y37008D02*
D03*
D27*
X106220Y32579D02*
D03*
D28*
X108898Y33268D02*
D03*
Y31890D02*
D03*
D29*
X126280Y20768D02*
D03*
X117028Y24508D02*
D03*
D30*
X126280Y28248D02*
D03*
D31*
X116555Y16339D02*
D03*
Y13780D02*
D03*
Y11220D02*
D03*
X123799Y16339D02*
D03*
Y13780D02*
D03*
Y11220D02*
D03*
D32*
X37624Y4632D02*
D03*
Y9947D02*
D03*
X42002D02*
D03*
Y4632D02*
D03*
D33*
X33833Y10242D02*
D03*
Y6502D02*
D03*
D34*
X17970Y28543D02*
D03*
X14230D02*
D03*
X86909Y11811D02*
D03*
X90650D02*
D03*
D35*
X41634Y44587D02*
D03*
X44587D02*
D03*
D36*
X7579Y37598D02*
D03*
Y10039D02*
D03*
D37*
X13976Y8169D02*
D03*
Y3642D02*
D03*
X19685D02*
D03*
Y8169D02*
D03*
D38*
X83465Y19291D02*
D03*
Y25000D02*
D03*
D39*
X70079Y19488D02*
D03*
X67520D02*
D03*
X64961D02*
D03*
X62402D02*
D03*
X59842D02*
D03*
D40*
X116831Y37106D02*
X117323Y36614D01*
X114862Y37106D02*
X116831D01*
D41*
X106693Y6693D02*
Y9646D01*
X106595Y15453D02*
X109547D01*
X104823Y11516D02*
X109547D01*
X110728D01*
X33324Y13541D02*
Y15799D01*
X32972Y13189D02*
X33324Y13541D01*
X27025Y12936D02*
Y15799D01*
X97933Y13484D02*
X102854D01*
X27165Y42323D02*
X28150D01*
X27068Y42226D02*
X27165Y42323D01*
X28150D02*
X28642Y41831D01*
X101871Y26379D02*
Y27755D01*
X101291Y25799D02*
X101871Y26379D01*
X100555Y25799D02*
X101291D01*
X100532Y25776D02*
X100555Y25799D01*
X98906Y25776D02*
X100532D01*
X98425Y25295D02*
X98906Y25776D01*
X98425Y23819D02*
Y25295D01*
X96654Y23819D02*
X98425D01*
X96653Y23819D02*
X96654Y23819D01*
X98425Y27756D02*
Y29134D01*
X99027Y29736D01*
X104910D02*
X105315Y29330D01*
Y27755D02*
Y29330D01*
X123799Y13780D02*
Y16339D01*
Y13780D02*
X126575D01*
X97047Y6693D02*
X100787D01*
X96063Y7677D02*
X97047Y6693D01*
X97933Y9547D02*
Y9657D01*
X109547Y8661D02*
Y9547D01*
X104229Y2461D02*
X105213Y3445D01*
X96063Y3642D02*
X97244Y2461D01*
X104229D01*
X105213Y3445D02*
X114272D01*
X97203Y35749D02*
X98700D01*
X100000Y34449D01*
X109547Y8661D02*
X110236Y7972D01*
X111127D01*
X111226Y8071D01*
X93012Y7677D02*
X96063D01*
X89665Y9350D02*
X89973Y9657D01*
X89665Y7579D02*
Y9350D01*
X89973Y9657D02*
X97933D01*
X94493Y12205D02*
Y15408D01*
X25591Y43111D02*
Y44685D01*
X24903Y42423D02*
X25591Y43111D01*
X102657Y29736D02*
Y32579D01*
X99027Y29736D02*
X102657D01*
X104910D01*
X98052Y44115D02*
X99016Y45079D01*
X100394D01*
X97342Y44115D02*
Y45374D01*
X95136Y44115D02*
X97342D01*
X98052D01*
X109498Y22195D02*
Y24951D01*
X109449Y25000D02*
X109498Y24951D01*
X86811Y15846D02*
Y16240D01*
X83169Y14272D02*
X84842D01*
X86811Y16240D01*
X57660Y24114D02*
X59399D01*
X28642Y39660D02*
Y41831D01*
X29528Y42838D02*
Y44685D01*
X87262Y29962D02*
Y32107D01*
Y29962D02*
X87892Y29332D01*
X90556D01*
X57660Y24114D02*
X57778Y23996D01*
X57406Y23623D02*
X57778Y23996D01*
X57385Y23623D02*
X57406D01*
X70181Y31793D02*
X70522Y31452D01*
Y30020D02*
Y31452D01*
X31749Y39618D02*
Y40616D01*
X29528Y42838D02*
X31749Y40616D01*
X0Y47638D02*
X102067D01*
X129921D01*
D42*
X20144Y35073D02*
Y35165D01*
Y35073D02*
X20421Y34795D01*
X22202D01*
X22146Y38287D02*
X22202Y38231D01*
Y36370D02*
Y38231D01*
X17126Y25197D02*
X18898D01*
X20323Y23772D01*
X22202D01*
X17815Y41339D02*
Y44291D01*
X30833Y10242D02*
X33833D01*
X45669Y10341D02*
X46520Y11192D01*
Y16457D01*
X46021Y16956D02*
X46520Y16457D01*
X46021Y16956D02*
Y19047D01*
X42002Y9947D02*
X42773Y10718D01*
X41198Y13147D02*
Y15799D01*
X40354Y12303D02*
X41198Y13147D01*
X38287Y12303D02*
X40354D01*
X37624Y11640D02*
X38287Y12303D01*
X37624Y9947D02*
Y11640D01*
X33833Y10242D02*
Y10900D01*
X36632Y13698D02*
X39421D01*
X33833Y10900D02*
X36632Y13698D01*
X39421D02*
X39623Y13901D01*
Y15799D01*
X21752Y41732D02*
Y44291D01*
X23866Y39618D02*
X25450D01*
X23279Y15799D02*
X25450D01*
X23031Y15551D02*
X23279Y15799D01*
X18393Y9461D02*
X19685Y8169D01*
X18393Y9461D02*
Y16523D01*
X20123Y18252D01*
X16732Y16727D02*
X19023Y19017D01*
X16732Y4232D02*
Y16727D01*
X16142Y3642D02*
X16732Y4232D01*
X13976Y3642D02*
X16142D01*
X19023Y19017D02*
Y20794D01*
X20425Y22197D01*
X22202D01*
X20123Y18252D02*
Y20319D01*
X20425Y20622D01*
X22202D01*
X9055Y3347D02*
X13681D01*
X13976Y3642D01*
X19685Y8169D02*
X24016D01*
X30175Y13442D02*
Y15799D01*
X29724Y12992D02*
X30175Y13442D01*
X29724Y12629D02*
Y12992D01*
X27657Y10562D02*
X29724Y12629D01*
X27657Y10335D02*
Y10562D01*
X46021Y31646D02*
X48575D01*
X46021Y28496D02*
X47779D01*
X48641Y27634D01*
X48981Y31784D02*
X49478Y31287D01*
X21752Y41732D02*
X23866Y39618D01*
X78642Y24114D02*
X83465Y19291D01*
X70522Y24114D02*
X78642D01*
X70522Y26083D02*
X82382D01*
X83465Y25000D01*
X97203Y42048D02*
Y42061D01*
X82599Y35749D02*
X85195D01*
X114272Y7381D02*
X122376D01*
X114272D02*
Y8957D01*
X114862Y9547D01*
X116043D01*
X116555Y10059D01*
Y11220D01*
X123799Y9469D02*
Y11220D01*
Y9469D02*
X124476Y8792D01*
Y3445D02*
Y8792D01*
X122376Y3445D02*
X124476D01*
X126575D01*
X74213Y28740D02*
X77559D01*
X70522Y28051D02*
X73524D01*
X74213Y28740D01*
X106693Y18307D02*
Y22441D01*
X105315Y23818D02*
X106693Y22441D01*
X100787Y18307D02*
Y21260D01*
X101871Y22343D01*
Y23818D01*
X114075Y11220D02*
X116555D01*
Y16339D02*
Y18130D01*
X116634Y18209D01*
X108898Y30768D02*
Y31890D01*
Y30768D02*
X108957Y30709D01*
X97203Y38886D02*
Y38899D01*
X100386Y38886D02*
X101378Y37894D01*
X97203Y38886D02*
X100386D01*
X116929Y33760D02*
X120374D01*
X116929Y31693D02*
Y33760D01*
X112309Y12987D02*
X114075Y11220D01*
X112309Y12987D02*
Y17521D01*
X116929Y33760D02*
X116929Y33760D01*
X83269Y34174D02*
X85195D01*
X82382Y35531D02*
X82599Y35749D01*
X107972Y18307D02*
X108760Y19094D01*
X106693Y18307D02*
X107972D01*
X97203Y42061D02*
X100377D01*
X100865Y42548D01*
X101378Y37894D02*
X104035D01*
X46021Y25346D02*
X47925D01*
X110827Y37106D02*
X113091D01*
X51083Y29035D02*
Y31287D01*
X49478D02*
X51083D01*
X82461Y33366D02*
X83269Y34174D01*
X82284Y33366D02*
X82461D01*
X59166Y31287D02*
X59399Y31053D01*
Y30020D02*
Y31053D01*
X53839Y29035D02*
X54429Y29626D01*
X38049Y39618D02*
Y40892D01*
X36951Y41990D02*
X38049Y40892D01*
X36951Y41990D02*
Y42185D01*
X34744Y42323D02*
X34899Y42168D01*
Y39618D02*
Y42168D01*
X53347Y39370D02*
Y42520D01*
X51378Y44488D02*
X53347Y42520D01*
X58661Y38780D02*
Y39075D01*
X58366Y38780D02*
X58661Y39075D01*
X109843Y37303D02*
X110236Y37697D01*
X107972Y37303D02*
X109843D01*
X56693Y28937D02*
X57579Y28051D01*
X59399D01*
X51083Y31287D02*
X59166D01*
X56693Y28937D02*
Y29626D01*
X54429D02*
X56693D01*
X46021Y33220D02*
X47886D01*
X48524Y33858D01*
X48575Y31646D02*
X48713Y31784D01*
X48981D01*
X48641Y27634D02*
X48811D01*
X48524Y15551D02*
Y22399D01*
X46021Y23772D02*
X47151D01*
X48524Y22399D01*
X47925Y25346D02*
X48811Y24461D01*
X47850Y29709D02*
X48811D01*
X47441Y30118D02*
X47850Y29709D01*
X46068Y30118D02*
X47441D01*
X46021Y30071D02*
X46068Y30118D01*
X129921Y0D02*
Y47638D01*
X0Y0D02*
X129921D01*
X0D02*
Y47638D01*
D43*
X22202Y26921D02*
X33324D01*
X108898Y33268D02*
Y34646D01*
D44*
X37224Y4232D02*
X37624Y4632D01*
X34154Y4232D02*
X37224D01*
X33833Y4553D02*
X34154Y4232D01*
X33833Y4553D02*
Y6502D01*
D45*
X83050Y40473D02*
X85195D01*
X82543Y40981D02*
X83050Y40473D01*
X97203D02*
X100119D01*
X78621Y37324D02*
X85195D01*
X71161Y40157D02*
X75787D01*
X126575Y7382D02*
Y10138D01*
X116831Y3445D02*
X118963D01*
X116831Y3445D02*
X116831Y3445D01*
X126280Y28248D02*
Y31004D01*
X126280Y20768D02*
Y23819D01*
X126279Y23819D02*
X126280Y23819D01*
X123130Y28248D02*
X126280D01*
X120768Y25886D02*
X123130Y28248D01*
X120768Y15059D02*
Y25886D01*
X119488Y13780D02*
X120768Y15059D01*
X116555Y13780D02*
X119488D01*
X97203Y37324D02*
X99528D01*
X99824Y37028D01*
X85413Y44115D02*
X87262D01*
X112894Y32087D02*
Y33858D01*
X109252Y15748D02*
X109547Y15453D01*
X85339Y44189D02*
X85413Y44115D01*
X85339Y44189D02*
Y44589D01*
X81496Y28740D02*
X82972D01*
X83760Y27953D01*
X112205Y31398D02*
X112894Y32087D01*
X111417Y31398D02*
X112205D01*
X104331Y42126D02*
Y45079D01*
X104331Y42126D02*
X109744D01*
X100119Y40473D02*
X102678D01*
X104331Y42126D01*
D46*
X59842Y14961D02*
Y19488D01*
X90748Y15059D02*
X91142Y15453D01*
X90748Y12598D02*
Y15059D01*
X72441Y13583D02*
X72933Y14075D01*
X59842Y14961D02*
X61221Y13583D01*
X72441D01*
X72933Y14075D02*
X79626D01*
X81890Y11811D01*
X86024Y6988D02*
Y10925D01*
X81890Y11811D02*
X86909D01*
D47*
X91142Y15453D02*
X97933D01*
D48*
X90158Y24016D02*
D03*
D49*
X52362Y8957D02*
D03*
X77559Y8957D02*
D03*
D50*
X55413Y20374D02*
D03*
X74508D02*
D03*
D51*
X44933Y15799D02*
D03*
X105413Y10925D02*
D03*
X20144Y35165D02*
D03*
X22146Y38287D02*
D03*
X17815Y41339D02*
D03*
X45669Y4134D02*
D03*
X30709D02*
D03*
X15256Y44488D02*
D03*
Y41076D02*
D03*
Y34252D02*
D03*
Y37664D02*
D03*
X32972Y13189D02*
D03*
X25886Y4232D02*
D03*
X28249Y4036D02*
D03*
X2756Y3347D02*
D03*
X23031Y15551D02*
D03*
X27067Y12894D02*
D03*
X24165Y13484D02*
D03*
X29724Y12992D02*
D03*
X12599Y10729D02*
D03*
X21555Y13878D02*
D03*
X14370Y18898D02*
D03*
X27068Y42226D02*
D03*
X45770Y40553D02*
D03*
X71161Y40157D02*
D03*
X82543Y41200D02*
D03*
X100119Y40473D02*
D03*
X126575Y10138D02*
D03*
X116831Y3445D02*
D03*
X81791Y5020D02*
D03*
X98327D02*
D03*
X74213Y28740D02*
D03*
X126280Y31004D02*
D03*
X126279Y23819D02*
D03*
X103740Y21358D02*
D03*
X96653Y23819D02*
D03*
X126575Y13780D02*
D03*
X111417Y3445D02*
D03*
X111226Y8071D02*
D03*
X116634Y18209D02*
D03*
X108957Y30709D02*
D03*
Y34646D02*
D03*
X117028Y21457D02*
D03*
X96063Y3642D02*
D03*
X99824Y37127D02*
D03*
X100000Y34449D02*
D03*
X116929Y31693D02*
D03*
X112309Y17521D02*
D03*
X94493Y12205D02*
D03*
X102067Y10925D02*
D03*
X105413Y14272D02*
D03*
X103740Y12598D02*
D03*
X102067Y14272D02*
D03*
X24903Y42423D02*
D03*
X82284Y33366D02*
D03*
X82382Y35531D02*
D03*
X85339Y44589D02*
D03*
X102657Y32579D02*
D03*
X83760Y27953D02*
D03*
X114474Y30612D02*
D03*
X111417Y31398D02*
D03*
X116732Y28051D02*
D03*
X108760Y19094D02*
D03*
X100865Y42548D02*
D03*
X97342Y45374D02*
D03*
X109498Y22195D02*
D03*
X87697Y20866D02*
D03*
X70029Y15994D02*
D03*
X123917Y31693D02*
D03*
X117323Y36614D02*
D03*
X114272Y42421D02*
D03*
X116339Y43898D02*
D03*
X83169Y14272D02*
D03*
X32285Y42817D02*
D03*
X36951Y42185D02*
D03*
X34744Y42323D02*
D03*
X39766Y44786D02*
D03*
X58661Y38780D02*
D03*
X90556Y29332D02*
D03*
X107972Y37303D02*
D03*
X57385Y23623D02*
D03*
X56693Y29626D02*
D03*
X48524Y33858D02*
D03*
X48713Y31784D02*
D03*
X48811Y29709D02*
D03*
Y27634D02*
D03*
X52658Y23031D02*
D03*
X48524Y15551D02*
D03*
X48811Y24461D02*
D03*
X70181Y31793D02*
D03*
X43900Y41833D02*
D03*
D52*
X41198Y20622D02*
D03*
X36474D02*
D03*
X31749D02*
D03*
X27025D02*
D03*
X41198Y25346D02*
D03*
X36474D02*
D03*
X31749D02*
D03*
X27025D02*
D03*
X41198Y30071D02*
D03*
X36474D02*
D03*
X31749D02*
D03*
X27025D02*
D03*
X41198Y34795D02*
D03*
X36474D02*
D03*
X31749D02*
D03*
X27025D02*
D03*
M02*
