G04 Layer_Physical_Order=4*
G04 Layer_Color=16711680*
%FSLAX25Y25*%
%MOIN*%
G70*
G01*
G75*
%ADD10C,0.01181*%
%ADD41C,0.00598*%
%ADD42C,0.00600*%
%ADD48C,0.03937*%
%ADD49O,0.04331X0.07087*%
%ADD50O,0.04134X0.04921*%
%ADD51C,0.01575*%
%ADD52C,0.02598*%
G04:AMPARAMS|DCode=53|XSize=59.06mil|YSize=98.43mil|CornerRadius=14.76mil|HoleSize=0mil|Usage=FLASHONLY|Rotation=90.000|XOffset=0mil|YOffset=0mil|HoleType=Round|Shape=RoundedRectangle|*
%AMROUNDEDRECTD53*
21,1,0.05906,0.06890,0,0,90.0*
21,1,0.02953,0.09843,0,0,90.0*
1,1,0.02953,0.03445,0.01476*
1,1,0.02953,0.03445,-0.01476*
1,1,0.02953,-0.03445,-0.01476*
1,1,0.02953,-0.03445,0.01476*
%
%ADD53ROUNDEDRECTD53*%
D10*
X12599Y8268D02*
Y10729D01*
X10531Y6201D02*
X12599Y8268D01*
X81791Y5020D02*
X88484D01*
X98327D02*
X104528D01*
Y5323D01*
X112508D02*
X116724Y9539D01*
X104528Y5323D02*
X112508D01*
X116724Y9539D02*
Y15643D01*
X123917Y22836D01*
Y31693D01*
X109547Y44488D02*
X111614Y42421D01*
X114272D01*
X121063Y43898D02*
X122638Y42323D01*
X116339Y43898D02*
X121063D01*
X68898Y23524D02*
X69290Y23131D01*
X81102Y22638D02*
X82874Y20866D01*
X87697D01*
D41*
X32972Y13189D02*
X37008D01*
X38681Y14862D01*
X26870Y12894D02*
X27067D01*
X24114Y10138D02*
X26870Y12894D01*
X27068Y42226D02*
X28148D01*
X29429Y40945D01*
X96063Y3642D02*
Y7480D01*
X103740Y21358D02*
Y24016D01*
X104626Y24902D01*
X111226Y7677D02*
Y12205D01*
X115047Y16026D01*
X94493Y9050D02*
X96063Y7480D01*
X94493Y9050D02*
Y12205D01*
X114474Y30517D02*
Y30612D01*
X115047Y16026D02*
Y19476D01*
X117028Y21457D01*
X104839Y19209D02*
X107825Y22195D01*
X109498D01*
X81201Y27953D02*
X83760D01*
X113091Y3445D02*
X119783Y10138D01*
Y13091D01*
X111417Y3445D02*
X113091D01*
X54726Y16831D02*
X57149Y14408D01*
X72772D01*
X75345Y16980D01*
X68209Y17815D02*
Y22835D01*
Y17815D02*
X70029Y15994D01*
X83760Y27953D02*
X84252Y27461D01*
X93701D01*
X94980Y28740D01*
X98130D01*
X112697D01*
X114474Y30517D01*
X51476Y16831D02*
X54726D01*
X50591Y17717D02*
X51476Y16831D01*
X50591Y17717D02*
Y24925D01*
X49468Y26047D02*
X50591Y24925D01*
X57385Y23623D02*
X62796D01*
X64846Y25672D01*
X66102D01*
X66114Y25660D01*
X78908D01*
X81201Y27953D01*
X78974Y19209D02*
X104839D01*
X75345Y16980D02*
X76745D01*
X78974Y19209D01*
X44488Y27165D02*
X45606Y26047D01*
X49468D01*
X42913Y38091D02*
X44488Y36516D01*
Y27165D02*
Y36516D01*
X24903Y38975D02*
Y42423D01*
Y38975D02*
X25787Y38091D01*
X42913D01*
X0Y47638D02*
X102067D01*
X129921D01*
D42*
X20669Y20965D02*
Y24803D01*
X22146Y26280D01*
Y38287D01*
X20866Y41339D02*
X21555Y42028D01*
X17815Y41339D02*
X20866D01*
X20144Y34514D02*
Y35165D01*
X18406Y32776D02*
X20144Y34514D01*
X17717Y16831D02*
X21752D01*
X23031Y15551D01*
X29724Y9941D02*
Y12992D01*
Y9941D02*
X34154Y5512D01*
X36811D01*
X14469Y13583D02*
X17717Y16831D01*
X45836Y30439D02*
X48641Y27634D01*
X45836Y30439D02*
Y34971D01*
X109431Y17521D02*
X112309D01*
X116634Y18209D02*
X120472Y22047D01*
Y24213D01*
X108957Y30709D02*
Y31182D01*
X111055Y33280D01*
X117587D01*
X120472Y24213D02*
Y30395D01*
X117587Y33280D02*
X120472Y30395D01*
X116929Y30493D02*
Y31693D01*
X113896Y27460D02*
X116929Y30493D01*
X107776Y18110D02*
X108760Y19094D01*
X108921Y17010D02*
X109431Y17521D01*
X113202Y15859D02*
X113896Y16554D01*
Y27460D01*
X36811Y5512D02*
X39764D01*
X83071Y44094D02*
X84617Y42548D01*
X100865D01*
X86713Y38714D02*
X100481D01*
X49675Y14400D02*
X54046D01*
X55782Y11108D02*
X74139D01*
X56238Y12208D02*
X73683D01*
X56694Y13308D02*
X73228D01*
X54502Y15500D02*
X56694Y13308D01*
X54046Y14400D02*
X56238Y12208D01*
X53591Y13300D02*
X55782Y11108D01*
X39764Y5512D02*
X47552Y13300D01*
X53591D01*
X74139Y11108D02*
X76712Y13681D01*
X73683Y12208D02*
X76256Y14781D01*
X73228Y13308D02*
X75801Y15881D01*
X81809Y34958D02*
X82382Y35531D01*
X36951Y41876D02*
Y42185D01*
Y41876D02*
X37055Y41980D01*
X54429Y38484D02*
Y41240D01*
X34744Y42147D02*
Y42323D01*
Y42147D02*
X37324Y39567D01*
X43799D01*
X44882Y38484D01*
X58366D02*
X58661Y38780D01*
X56693D02*
X58661D01*
X56398Y38484D02*
X56693Y38780D01*
X54429Y38484D02*
X56398D01*
X100481Y38714D02*
X101892Y37303D01*
X107972D01*
X59842Y29626D02*
X65175Y34958D01*
X81809D01*
X57105Y33268D02*
X57776D01*
X52461Y33858D02*
X55413Y30906D01*
X56693Y29626D02*
X59842D01*
X55426Y28039D02*
X62094D01*
X51681Y31784D02*
X55426Y28039D01*
X44882Y38484D02*
X54429D01*
X45836Y34971D02*
X48053Y37188D01*
X48524Y33858D02*
X52461D01*
X48713Y31784D02*
X51681D01*
X48542Y29709D02*
X48811D01*
X48641Y27634D02*
X48811D01*
X48524Y15551D02*
X49675Y14400D01*
X51253Y15500D02*
X54502D01*
X48811Y17942D02*
X51253Y15500D01*
X48811Y17942D02*
Y24461D01*
Y29709D02*
X52200D01*
X55137Y26772D01*
X66557D01*
X66570Y26759D01*
X72232D01*
X82269Y33380D02*
X82284Y33366D01*
X67435Y33380D02*
X82269D01*
X72232Y26759D02*
X74213Y28740D01*
X65650Y31594D02*
X67716Y29528D01*
X62094Y28039D02*
X65650Y31594D01*
X67435Y33380D01*
X55413Y30906D02*
X57776Y33268D01*
X55413Y30906D02*
X56693Y29626D01*
X79429Y18110D02*
X107776D01*
X79885Y17010D02*
X108921D01*
X75801Y15881D02*
X77200D01*
X79429Y18110D01*
X76256Y14781D02*
X77656D01*
X79885Y17010D01*
X76712Y13681D02*
X78150D01*
X80328Y15859D01*
X113202D01*
X86713Y30413D02*
Y38714D01*
X81764D02*
X86713D01*
X48053Y37188D02*
X80238D01*
X81764Y38714D01*
X43406Y44094D02*
X83071D01*
X41496Y42185D02*
X43406Y44094D01*
X36951Y42185D02*
X41496D01*
X129921Y0D02*
Y47638D01*
X0Y0D02*
X129921D01*
X0D02*
Y47638D01*
D48*
X68209Y22835D02*
D03*
X54429Y41240D02*
D03*
X21555Y42028D02*
D03*
X10531Y6201D02*
D03*
X20669Y20965D02*
D03*
X18406Y32776D02*
D03*
X86713Y30413D02*
D03*
X98130Y28740D02*
D03*
X104626Y24902D02*
D03*
X36811Y5512D02*
D03*
X119783Y13091D02*
D03*
X67716Y29528D02*
D03*
X57776Y33268D02*
D03*
X120472Y24213D02*
D03*
X81102Y22638D02*
D03*
X29429Y40945D02*
D03*
X38681Y14862D02*
D03*
X14469Y13583D02*
D03*
X24114Y10138D02*
D03*
X90158Y24016D02*
D03*
D49*
X52362Y8957D02*
D03*
X77559Y8957D02*
D03*
D50*
X55413Y20374D02*
D03*
X74508D02*
D03*
D51*
X44933Y15799D02*
D03*
X105413Y10925D02*
D03*
X20144Y35165D02*
D03*
X22146Y38287D02*
D03*
X17815Y41339D02*
D03*
X45669Y4134D02*
D03*
X30709D02*
D03*
X15256Y44488D02*
D03*
Y41076D02*
D03*
Y34252D02*
D03*
Y37664D02*
D03*
X32972Y13189D02*
D03*
X25886Y4232D02*
D03*
X28249Y4036D02*
D03*
X2756Y3347D02*
D03*
X23031Y15551D02*
D03*
X27067Y12894D02*
D03*
X24165Y13484D02*
D03*
X29724Y12992D02*
D03*
X12599Y10729D02*
D03*
X21555Y13878D02*
D03*
X14370Y18898D02*
D03*
X27068Y42226D02*
D03*
X45770Y40553D02*
D03*
X71161Y40157D02*
D03*
X82543Y41200D02*
D03*
X100119Y40473D02*
D03*
X126575Y10138D02*
D03*
X116831Y3445D02*
D03*
X81791Y5020D02*
D03*
X98327D02*
D03*
X74213Y28740D02*
D03*
X126280Y31004D02*
D03*
X126279Y23819D02*
D03*
X103740Y21358D02*
D03*
X96653Y23819D02*
D03*
X126575Y13780D02*
D03*
X111417Y3445D02*
D03*
X111226Y8071D02*
D03*
X116634Y18209D02*
D03*
X108957Y30709D02*
D03*
Y34646D02*
D03*
X117028Y21457D02*
D03*
X96063Y3642D02*
D03*
X99824Y37127D02*
D03*
X100000Y34449D02*
D03*
X116929Y31693D02*
D03*
X112309Y17521D02*
D03*
X94493Y12205D02*
D03*
X102067Y10925D02*
D03*
X105413Y14272D02*
D03*
X103740Y12598D02*
D03*
X102067Y14272D02*
D03*
X24903Y42423D02*
D03*
X82284Y33366D02*
D03*
X82382Y35531D02*
D03*
X85339Y44589D02*
D03*
X102657Y32579D02*
D03*
X83760Y27953D02*
D03*
X114474Y30612D02*
D03*
X111417Y31398D02*
D03*
X116732Y28051D02*
D03*
X108760Y19094D02*
D03*
X100865Y42548D02*
D03*
X97342Y45374D02*
D03*
X109498Y22195D02*
D03*
X87697Y20866D02*
D03*
X70029Y15994D02*
D03*
X123917Y31693D02*
D03*
X117323Y36614D02*
D03*
X114272Y42421D02*
D03*
X116339Y43898D02*
D03*
X83169Y14272D02*
D03*
X32285Y42817D02*
D03*
X36951Y42185D02*
D03*
X34744Y42323D02*
D03*
X39766Y44786D02*
D03*
X58661Y38780D02*
D03*
X90556Y29332D02*
D03*
X107972Y37303D02*
D03*
X57385Y23623D02*
D03*
X56693Y29626D02*
D03*
X48524Y33858D02*
D03*
X48713Y31784D02*
D03*
X48811Y29709D02*
D03*
Y27634D02*
D03*
X52658Y23031D02*
D03*
X48524Y15551D02*
D03*
X48811Y24461D02*
D03*
X70181Y31793D02*
D03*
X43900Y41833D02*
D03*
D52*
X41198Y20622D02*
D03*
X36474D02*
D03*
X31749D02*
D03*
X27025D02*
D03*
X41198Y25346D02*
D03*
X36474D02*
D03*
X31749D02*
D03*
X27025D02*
D03*
X41198Y30071D02*
D03*
X36474D02*
D03*
X31749D02*
D03*
X27025D02*
D03*
X41198Y34795D02*
D03*
X36474D02*
D03*
X31749D02*
D03*
X27025D02*
D03*
D53*
X104528Y5020D02*
D03*
X88484D02*
D03*
X107776Y42717D02*
D03*
X123031D02*
D03*
M02*
